 0x000000000000000e (SONAME)             Library soname: [liblp.so]
  
Symbol   contains 288 entries:
Num:   Type Bind Vis Ndx Name
0:   NOTYPE LOCAL DEFAULT UND
1:   NOTYPE WEAK DEFAULT UND __gmon_start__
2:   NOTYPE WEAK DEFAULT UND _ITM_deregisterTMCloneTab
3:   NOTYPE WEAK DEFAULT UND _ITM_registerTMCloneTable
4:   FUNC WEAK DEFAULT UND __cxa_finalize@GLIBC_2.2.5 (2)
5:   NOTYPE WEAK DEFAULT UND _Jv_RegisterClasses
6:   FUNC GLOBAL DEFAULT UND _ZN7android4base10LogMess
7:   FUNC GLOBAL DEFAULT UND _ZN7android4base10LogMess
8:   FUNC GLOBAL DEFAULT UND _ZN7android4base10LogMess
9:   FUNC GLOBAL DEFAULT UND _ZN7android4base15GetBool
10:   FUNC GLOBAL DEFAULT UND _ZN7android4base21GetMini
11:   FUNC GLOBAL DEFAULT UND _ZNKSt3__112basic_stringI
12:   FUNC GLOBAL DEFAULT UND _ZNKSt3__120__vector_base
13:   FUNC GLOBAL DEFAULT UND _ZNKSt3__16locale9use_fac
14:   FUNC GLOBAL DEFAULT UND _ZNKSt3__18ios_base6getlo
15:   FUNC GLOBAL DEFAULT UND _ZNSt3__112basic_stringIc
16:   FUNC GLOBAL DEFAULT UND _ZNSt3__112basic_stringIc
17:   FUNC GLOBAL DEFAULT UND _ZNSt3__112basic_stringIc
18:   FUNC GLOBAL DEFAULT UND _ZNSt3__112basic_stringIc
19:   FUNC GLOBAL DEFAULT UND _ZNSt3__112basic_stringIc
20:   FUNC GLOBAL DEFAULT UND _ZNSt3__113basic_ostreamI
21:   FUNC GLOBAL DEFAULT UND _ZNSt3__113basic_ostreamI
22:   FUNC GLOBAL DEFAULT UND _ZNSt3__113basic_ostreamI
23:   FUNC GLOBAL DEFAULT UND _ZNSt3__113basic_ostreamI
24:   FUNC GLOBAL DEFAULT UND _ZNSt3__113basic_ostreamI
25:   OBJECT GLOBAL DEFAULT UND _ZNSt3__15ctypeIcE2idE
26:   FUNC GLOBAL DEFAULT UND _ZNSt3__16localeD1Ev
27:   FUNC GLOBAL DEFAULT UND _ZNSt3__18ios_base5clearE
28:   OBJECT GLOBAL DEFAULT UND _ZTVN10__cxxabiv117__clas
29:   OBJECT GLOBAL DEFAULT UND _ZTVN10__cxxabiv120__si_c
30:   FUNC GLOBAL DEFAULT UND _ZdlPv
31:   FUNC GLOBAL DEFAULT UND _Znwm
32:   FUNC GLOBAL DEFAULT UND __cxa_atexit@GLIBC_2.2.5 (2)
33:   FUNC GLOBAL DEFAULT UND __errno_location@GLIBC_2.2.5 (3)
34:   FUNC GLOBAL DEFAULT UND __stack_chk_fail@GLIBC_2.4 (4)
35:   FUNC GLOBAL DEFAULT UND abort@GLIBC_2.2.5 (2)
36:   FUNC GLOBAL DEFAULT UND memcmp@GLIBC_2.2.5 (2)
37:   FUNC GLOBAL DEFAULT UND memcpy@GLIBC_2.14 (5)
38:   FUNC GLOBAL DEFAULT UND memmove@GLIBC_2.2.5 (2)
39:   FUNC GLOBAL DEFAULT UND memset@GLIBC_2.2.5 (2)
40:   FUNC GLOBAL DEFAULT UND strncpy@GLIBC_2.2.5 (2)
41:   FUNC GLOBAL DEFAULT UND _ZN13TemporaryFile7releas
42:   FUNC GLOBAL DEFAULT UND _ZN13TemporaryFileC1Ev
43:   FUNC GLOBAL DEFAULT UND _ZN13TemporaryFileD1Ev
44:   FUNC GLOBAL DEFAULT UND _ZN7android4base10WriteFu
45:   FUNC GLOBAL DEFAULT UND _ZN7android4base9ReadFull
46:   FUNC GLOBAL DEFAULT UND _ZNKSt3__121__basic_strin
47:   FUNC GLOBAL DEFAULT UND _ZNSt3__112basic_stringIc
48:   FUNC GLOBAL DEFAULT UND _ZNSt3__112basic_stringIc
49:   FUNC GLOBAL DEFAULT UND _ZNSt3__1plIcNS_11char_tr
50:   FUNC GLOBAL DEFAULT UND _ZdaPv
51:   FUNC GLOBAL DEFAULT UND _Znam
52:   FUNC GLOBAL DEFAULT UND close@GLIBC_2.2.5 (3)
53:   FUNC GLOBAL DEFAULT UND open64@GLIBC_2.2.5 (3)
54:   FUNC GLOBAL DEFAULT UND sparse_file_add_data
55:   FUNC GLOBAL DEFAULT UND sparse_file_add_fd
56:   FUNC GLOBAL DEFAULT UND sparse_file_add_fill
57:   FUNC GLOBAL DEFAULT UND sparse_file_destroy
58:   FUNC GLOBAL DEFAULT UND sparse_file_import
59:   FUNC GLOBAL DEFAULT UND sparse_file_new
60:   FUNC GLOBAL DEFAULT UND sparse_file_write
61:   FUNC GLOBAL DEFAULT UND strlen@GLIBC_2.2.5 (2)
62:   FUNC GLOBAL DEFAULT UND _ZN7android4base8Basename
63:   FUNC GLOBAL DEFAULT UND ioctl@GLIBC_2.2.5 (2)
64:   FUNC GLOBAL DEFAULT UND _ZNSt3__113basic_ostreamI
65:   OBJECT GLOBAL DEFAULT UND _ZSt7nothrow
66:   FUNC GLOBAL DEFAULT UND _ZnamRKSt9nothrow_t
67:   FUNC GLOBAL DEFAULT UND SHA256_Final
68:   FUNC GLOBAL DEFAULT UND SHA256_Init
69:   FUNC GLOBAL DEFAULT UND SHA256_Update
70:   FUNC GLOBAL DEFAULT UND __fxstat64@GLIBC_2.2.5 (2)
71:   FUNC GLOBAL DEFAULT UND get_block_device_size
72:   FUNC GLOBAL DEFAULT UND lseek64@GLIBC_2.2.5 (3)
73:   OBJECT GLOBAL DEFAULT UND _ZTVN10__cxxabiv119__poin
74:   OBJECT GLOBAL DEFAULT UND _ZTVN10__cxxabiv120__func
75:   FUNC GLOBAL DEFAULT 12 _ZN7android6fs_mgr15Metad
76:   FUNC GLOBAL DEFAULT 12 _ZN7android6fs_mgr10SeekF
77:   FUNC GLOBAL DEFAULT 12 _ZN7android6fs_mgr19ReadP
78:   OBJECT WEAK DEFAULT 21 _ZTVNSt3__110__function6_
79:   FUNC GLOBAL DEFAULT 12 _ZN7android6fs_mgr15Metad
80:   FUNC WEAK DEFAULT 12 _ZNSt3__114__split_buffer
81:   FUNC GLOBAL DEFAULT 12 _ZN7android6fs_mgr23GetBa
82:   OBJECT WEAK DEFAULT 9 _ZTSNSt3__110__function6_
83:   FUNC WEAK DEFAULT 12 _ZNSt3__16vectorI21LpMeta
84:   OBJECT GLOBAL DEFAULT 21 _ZTVN7android6fs_mgr12Lin
85:   FUNC GLOBAL DEFAULT 12 _ZN7android6fs_mgr12Image
86:   FUNC WEAK DEFAULT 12 _ZN7android6fs_mgr12Memor
87:   FUNC WEAK DEFAULT 12 _ZN7android6fs_mgr12Memor
88:   FUNC GLOBAL DEFAULT 12 _ZNK7android6fs_mgr15Meta
89:   FUNC WEAK DEFAULT 12 _ZN7android6fs_mgr6Extent
90:   FUNC WEAK DEFAULT 12 _ZNSt3__16vectorINS_10uni
91:   FUNC GLOBAL DEFAULT 12 _ZN7android6fs_mgr16Write
92:   FUNC WEAK DEFAULT 12 _ZNSt3__17__sort3IRNS_6__
93:   OBJECT GLOBAL DEFAULT 9 _ZTSN7android6fs_mgr15Par
94:   FUNC WEAK DEFAULT 12 _ZNSt3__110__function6__f
95:   OBJECT GLOBAL DEFAULT 21 _ZTIN7android6fs_mgr15Par
96:   FUNC GLOBAL DEFAULT 12 _ZN7android6fs_mgr15Metad
97:   FUNC GLOBAL DEFAULT 12 _ZN7android6fs_mgr15Metad
98:   FUNC GLOBAL DEFAULT 12 _ZN7android6fs_mgr21GetPa
99:   FUNC GLOBAL DEFAULT 12 _ZN7android6fs_mgr9Partit
100:   FUNC GLOBAL DEFAULT 12 _ZNK7android6fs_mgr15Meta
101:   FUNC WEAK DEFAULT 12 _ZNKSt3__16__treeINS_12ba
102:   FUNC GLOBAL DEFAULT 12 _ZN7android6fs_mgr17ReadF
103:   FUNC GLOBAL DEFAULT 12 _ZN7android6fs_mgr19ReadP
104:   OBJECT WEAK DEFAULT 9 _ZTSN7android6fs_mgr10Fil
105:   FUNC GLOBAL DEFAULT 12 _ZN7android6fs_mgr28GetBl
106:   FUNC WEAK DEFAULT 12 _ZNSt3__127__insertion_so
107:   FUNC WEAK DEFAULT 12 _ZNSt3__16vectorINS_12bas
108:   FUNC GLOBAL DEFAULT 12 _ZN7android6fs_mgr16GetPa
109:   FUNC GLOBAL DEFAULT 12 _ZN7android6fs_mgr30Updat
110:   FUNC GLOBAL DEFAULT 12 _ZNK7android6fs_mgr10Zero
111:   FUNC WEAK DEFAULT 12 _ZNSt3__16vectorIPN7andro
112:   OBJECT GLOBAL DEFAULT 9 _ZTSN7android6fs_mgr12Lin
113:   FUNC WEAK DEFAULT 12 _ZNSt3__16__treeINS_12__v
114:   FUNC GLOBAL DEFAULT 12 _ZNK7android6fs_mgr15Part
115:   FUNC GLOBAL DEFAULT 12 _ZN7android6fs_mgr15Metad
116:   OBJECT WEAK DEFAULT 9 _ZTSNSt3__110__function6_
117:   FUNC GLOBAL DEFAULT 12 _ZN7android6fs_mgr15Metad
118:   FUNC GLOBAL DEFAULT 12 _ZN7android6fs_mgr15Metad
119:   FUNC GLOBAL DEFAULT 12 _ZNK7android6fs_mgr15Meta
120:   FUNC GLOBAL DEFAULT 12 _ZNK7android6fs_mgr15Meta
121:   FUNC GLOBAL DEFAULT 12 _ZN7android6fs_mgr12Image
122:   FUNC WEAK DEFAULT 12 _ZN7android6fs_mgr12Linea
123:   FUNC GLOBAL DEFAULT 12 _ZN7android6fs_mgr15Metad
124:   FUNC GLOBAL DEFAULT 12 _ZN7android6fs_mgr9Partit
125:   FUNC WEAK DEFAULT 12 _ZNSt3__16__treeINS_12__v
126:   FUNC GLOBAL DEFAULT 12 _ZN7android6fs_mgr24GetPr
127:   FUNC GLOBAL DEFAULT 12 _ZN7android6fs_mgr20Updat
128:   FUNC WEAK DEFAULT 12 _ZNSt3__16vectorIN7androi
129:   FUNC WEAK DEFAULT 12 _ZNSt3__16vectorINS_10uni
130:   FUNC GLOBAL DEFAULT 13 _init
131:   FUNC GLOBAL DEFAULT 14 _fini
132:   FUNC GLOBAL DEFAULT 12 _ZN7android6fs_mgr15Metad
133:   FUNC WEAK DEFAULT 12 _ZNSt3__16vectorIN7androi
134:   FUNC WEAK DEFAULT 12 _ZNSt3__16__treeINS_12__v
135:   FUNC GLOBAL DEFAULT 12 _ZN7android6fs_mgr6SHA256
136:   OBJECT WEAK DEFAULT 21 _ZTVN7android6fs_mgr12Mem
137:   FUNC WEAK DEFAULT 12 _ZNKSt3__110__function6__
138:   OBJECT GLOBAL DEFAULT 26 _ZN7android6fs_mgr15Metad
139:   FUNC WEAK DEFAULT 12 _ZNSt3__16__treeINS_12__v
140:   FUNC GLOBAL DEFAULT 12 _ZNK7android6fs_mgr12Imag
141:   FUNC WEAK DEFAULT 12 _ZNSt3__16vectorINS_10uni
142:   FUNC WEAK DEFAULT 12 _ZNSt3__110__function6__f
143:   OBJECT WEAK DEFAULT 9 _ZTSPFbiRKNSt3__112basic_
144:   FUNC GLOBAL DEFAULT 12 _ZN7android6fs_mgr15Metad
145:   FUNC GLOBAL DEFAULT 12 _ZN7android6fs_mgr13Parse
146:   FUNC GLOBAL DEFAULT 12 _ZN7android6fs_mgr15Metad
147:   FUNC WEAK DEFAULT 12 _ZN7android6fs_mgr15Metad
148:   FUNC GLOBAL DEFAULT 12 _ZN7android6fs_mgr23SlotS
149:   FUNC WEAK DEFAULT 12 _ZNSt3__124__put_characte
150:   FUNC WEAK DEFAULT 12 _ZNSt3__16vectorINS_12bas
151:   FUNC GLOBAL DEFAULT 12 _ZN7android6fs_mgr15Metad
152:   FUNC GLOBAL DEFAULT 12 _ZN7android6fs_mgr9Partit
153:   FUNC WEAK DEFAULT 12 _ZNSt3__16vectorIN7androi
154:   FUNC GLOBAL DEFAULT 12 _ZN7android6fs_mgr17ReadF
155:   FUNC WEAK DEFAULT 12 _ZNSt3__16__treeINS_12__v
156:   FUNC WEAK DEFAULT 12 _ZNSt3__16__treeINS_12__v
157:   FUNC GLOBAL DEFAULT 12 _ZN7android6fs_mgr24GetPr
158:   FUNC GLOBAL DEFAULT 12 _ZN7android6fs_mgr19Flash
159:   OBJECT WEAK DEFAULT 21 _ZTVN7android6fs_mgr10Fil
160:   FUNC GLOBAL DEFAULT 12 _ZN7android6fs_mgr12ReadM
161:   FUNC GLOBAL DEFAULT 12 _ZN7android6fs_mgr15Metad
162:   FUNC GLOBAL DEFAULT 12 _ZN7android6fs_mgr15Metad
163:   FUNC GLOBAL DEFAULT 12 _ZN7android6fs_mgr9Partit
164:   FUNC WEAK DEFAULT 12 _ZNSt3__16vectorIN7androi
165:   FUNC GLOBAL DEFAULT 12 _ZNK7android6fs_mgr12Imag
166:   FUNC GLOBAL DEFAULT 12 _ZN7android6fs_mgr20Updat
167:   FUNC WEAK DEFAULT 12 _ZN7android6fs_mgr6Extent
168:   FUNC GLOBAL DEFAULT 12 _ZN7android6fs_mgr12Image
169:   FUNC WEAK DEFAULT 12 _ZN7android6fs_mgr15Parti
170:   FUNC GLOBAL DEFAULT 12 _ZN7android6fs_mgr18ReadB
171:   FUNC WEAK DEFAULT 12 _ZN7android6fs_mgr6Reader
172:   OBJECT WEAK DEFAULT 9 _ZTSN7android6fs_mgr12Mem
173:   FUNC GLOBAL DEFAULT 12 _ZN7android6fs_mgr22GetPa
174:   FUNC GLOBAL DEFAULT 12 _ZN7android6fs_mgr27GetBl
175:   FUNC GLOBAL DEFAULT 12 _ZNK7android6fs_mgr15Meta
176:   FUNC GLOBAL DEFAULT 12 _ZN7android6fs_mgr15Metad
177:   OBJECT GLOBAL DEFAULT 26 _ZN7android6fs_mgr15Metad
178:   FUNC WEAK DEFAULT 12 _ZNSt3__16vectorI21LpMeta
179:   OBJECT WEAK DEFAULT 21 _ZTIN7android6fs_mgr10Fil
180:   FUNC GLOBAL DEFAULT 12 _ZN7android6fs_mgr15Metad
181:   FUNC GLOBAL DEFAULT 12 _ZN7android6fs_mgr15Metad
182:   FUNC GLOBAL DEFAULT 12 _ZNK7android6fs_mgr15Meta
183:   OBJECT GLOBAL DEFAULT 21 _ZTIN7android6fs_mgr12Lin
184:   OBJECT GLOBAL DEFAULT 21 _ZTVN7android6fs_mgr15Par
185:   FUNC GLOBAL DEFAULT 12 _ZN7android6fs_mgr12Image
186:   FUNC WEAK DEFAULT 12 _ZNSt3__16__treeINS_12__v
187:   FUNC GLOBAL DEFAULT 12 _ZN7android6fs_mgr16Write
188:   FUNC GLOBAL DEFAULT 12 _ZNK7android6fs_mgr9Parti
189:   FUNC GLOBAL DEFAULT 12 _ZN7android6fs_mgr12ReadM
190:   OBJECT WEAK DEFAULT 21 _ZTIN7android6fs_mgr6Read
191:   FUNC GLOBAL DEFAULT 12 _ZN7android6fs_mgr19Flash
192:   FUNC WEAK DEFAULT 12 _ZN7android6fs_mgr12Linea
193:   FUNC GLOBAL DEFAULT 12 _ZN7android6fs_mgr15Metad
194:   FUNC GLOBAL DEFAULT 12 _ZN7android6fs_mgr15Metad
195:   OBJECT GLOBAL DEFAULT 9 _ZTSN7android6fs_mgr10Zer
196:   FUNC GLOBAL DEFAULT 12 _ZNK7android6fs_mgr15Meta
197:   FUNC GLOBAL DEFAULT 12 _ZN7android6fs_mgr13Parse
198:   FUNC GLOBAL DEFAULT 12 _ZN7android6fs_mgr20Write
199:   OBJECT WEAK DEFAULT 21 _ZTIN7android6fs_mgr16IPa
200:   FUNC GLOBAL DEFAULT 12 _ZN7android6fs_mgr15Metad
201:   FUNC WEAK DEFAULT 12 _ZNSt3__16vectorI21LpMeta
202:   OBJECT GLOBAL DEFAULT 21 _ZTVN7android6fs_mgr10Zer
203:   FUNC GLOBAL DEFAULT 12 _ZNK7android6fs_mgr15Part
204:   OBJECT WEAK DEFAULT 21 _ZTIN7android6fs_mgr6Exte
205:   FUNC GLOBAL DEFAULT 12 _ZN7android6fs_mgr27GetMe
206:   FUNC GLOBAL DEFAULT 12 _ZNK7android6fs_mgr15Meta
207:   FUNC WEAK DEFAULT 12 _ZNSt3__1plIcNS_11char_tr
208:   FUNC GLOBAL DEFAULT 12 _ZN7android6fs_mgr20Updat
209:   FUNC WEAK DEFAULT 12 _ZNSt3__16vectorI21LpMeta
210:   FUNC WEAK DEFAULT 12 _ZNKSt3__110__function6__
211:   OBJECT WEAK DEFAULT 21 _ZTINSt3__110__function6_
212:   FUNC GLOBAL DEFAULT 12 _ZN7android6fs_mgr20GetCo
213:   FUNC GLOBAL DEFAULT 12 _ZN7android6fs_mgr12Image
214:   FUNC WEAK DEFAULT 12 _ZN7android6fs_mgr10FileR
215:   FUNC GLOBAL DEFAULT 12 _ZN7android6fs_mgr15Metad
216:   FUNC GLOBAL DEFAULT 12 _ZNK7android6fs_mgr15Meta
217:   FUNC GLOBAL DEFAULT 12 _ZN7android6fs_mgr17GetDe
218:   OBJECT WEAK DEFAULT 21 _ZTIPFbiRKNSt3__112basic_
219:   FUNC WEAK DEFAULT 12 _ZNSt3__16vectorIN7androi
220:   FUNC GLOBAL DEFAULT 12 _ZN7android6fs_mgr13Parse
221:   OBJECT WEAK DEFAULT 21 _ZTIN7android6fs_mgr12Mem
222:   FUNC GLOBAL DEFAULT 12 _ZN7android6fs_mgr15Metad
223:   FUNC GLOBAL DEFAULT 12 _ZN7android6fs_mgr15Metad
224:   FUNC GLOBAL DEFAULT 12 _ZN7android6fs_mgr15Metad
225:   FUNC GLOBAL DEFAULT 12 _ZN7android6fs_mgr15Metad
226:   FUNC GLOBAL DEFAULT 12 _ZNK7android6fs_mgr15Meta
227:   FUNC GLOBAL DEFAULT 12 _ZN7android6fs_mgr28ReadL
228:   FUNC GLOBAL DEFAULT 12 _ZN7android6fs_mgr23SlotN
229:   FUNC WEAK DEFAULT 12 _ZN7android6fs_mgr10ZeroE
230:   FUNC GLOBAL DEFAULT 12 _ZN7android6fs_mgr15Metad
231:   FUNC GLOBAL DEFAULT 12 _ZN7android6fs_mgr20GetTo
232:   OBJECT WEAK DEFAULT 9 _ZTSN7android6fs_mgr6Exte
233:   FUNC GLOBAL DEFAULT 12 _ZN7android6fs_mgr15Metad
234:   FUNC GLOBAL DEFAULT 12 _ZNK7android6fs_mgr15Meta
235:   FUNC WEAK DEFAULT 12 _ZNSt3__16vectorI21LpMeta
236:   FUNC GLOBAL DEFAULT 12 _ZNK7android6fs_mgr12Imag
237:   FUNC WEAK DEFAULT 12 _ZN7android6fs_mgr16IPart
238:   FUNC WEAK DEFAULT 12 _ZN7android6fs_mgr10FileR
239:   FUNC GLOBAL DEFAULT 12 _ZN7android6fs_mgr18ReadB
240:   FUNC GLOBAL DEFAULT 12 _ZN7android6fs_mgr24Updat
241:   FUNC WEAK DEFAULT 12 _ZNSt3__110__function6__f
242:   FUNC GLOBAL DEFAULT 12 _ZN7android6fs_mgr15Metad
243:   FUNC WEAK DEFAULT 12 _ZNSt3__16vectorINS_10uni
244:   FUNC WEAK DEFAULT 12 _ZN7android6fs_mgr12Image
245:   FUNC GLOBAL DEFAULT 12 _ZNK7android6fs_mgr15Meta
246:   FUNC GLOBAL DEFAULT 12 _ZN7android6fs_mgr17Seria
247:   FUNC GLOBAL DEFAULT 12 _ZN7android6fs_mgr16Write
248:   OBJECT WEAK DEFAULT 9 _ZTSN7android6fs_mgr16IPa
249:   FUNC WEAK DEFAULT 12 _ZNKSt3__110__function6__
250:   OBJECT WEAK DEFAULT 21 _ZTIFbiRKNSt3__112basic_s
251:   OBJECT WEAK DEFAULT 9 _ZTSFbiRKNSt3__112basic_s
252:   FUNC GLOBAL DEFAULT 12 _ZN7android6fs_mgr15Metad
253:   FUNC GLOBAL DEFAULT 12 _ZNK7android6fs_mgr12Line
254:   OBJECT GLOBAL DEFAULT 21 _ZTIN7android6fs_mgr10Zer
255:   FUNC GLOBAL DEFAULT 12 _ZNK7android6fs_mgr15Meta
256:   FUNC GLOBAL DEFAULT 12 _ZN7android6fs_mgr17Seria
257:   FUNC WEAK DEFAULT 12 _ZN7android6fs_mgr10LpMet
258:   FUNC GLOBAL DEFAULT 12 _ZN7android6fs_mgr15Metad
259:   FUNC GLOBAL DEFAULT 12 _ZN7android6fs_mgr9Partit
260:   FUNC GLOBAL DEFAULT 12 _ZN7android6fs_mgr12Image
261:   FUNC WEAK DEFAULT 12 _ZNSt3__16vectorIN7androi
262:   OBJECT WEAK DEFAULT 9 _ZTSN7android6fs_mgr6Read
263:   FUNC GLOBAL DEFAULT 12 _ZN7android6fs_mgr16SetBl
264:   FUNC WEAK DEFAULT 12 _ZNKSt3__110__function6__
265:   FUNC GLOBAL DEFAULT 12 _ZNK7android6fs_mgr15Meta
266:   FUNC GLOBAL DEFAULT 12 _ZNK7android6fs_mgr15Meta
267:   FUNC WEAK DEFAULT 12 _ZNSt3__16vectorINS_10uni
268:   FUNC GLOBAL DEFAULT 12 _ZN7android6fs_mgr17ReadF
269:   FUNC WEAK DEFAULT 12 _ZNSt3__110__function6__f
270:   FUNC GLOBAL DEFAULT 12 _ZN7android6fs_mgr15Metad
271:   FUNC GLOBAL DEFAULT 12 _ZNK7android6fs_mgr15Meta
272:   FUNC WEAK DEFAULT 12 _ZNSt3__16vectorINS_10uni
273:   FUNC GLOBAL DEFAULT 12 _ZN7android6fs_mgr12Image
274:   FUNC GLOBAL DEFAULT 12 _ZN7android6fs_mgr12Image
275:   OBJECT WEAK DEFAULT 21 _ZTINSt3__110__function6_
276:   FUNC GLOBAL DEFAULT 12 _ZN7android6fs_mgr15Metad
277:   FUNC WEAK DEFAULT 12 _ZNSt3__127__tree_balance
278:   FUNC WEAK DEFAULT 12 _ZNSt3__16__treeINS_12__v
279:   FUNC GLOBAL DEFAULT 12 _ZN7android6fs_mgr15Metad
280:   FUNC WEAK DEFAULT 12 _ZNSt3__16__sortIRNS_6__l
281:   FUNC GLOBAL DEFAULT 12 _ZN7android6fs_mgr12Image
282:   FUNC GLOBAL DEFAULT 12 _ZN7android6fs_mgr15Metad
283:   FUNC GLOBAL DEFAULT 12 _ZN7android6fs_mgr12Image
284:   FUNC GLOBAL DEFAULT 12 _ZN7android6fs_mgr26GetTo
285:   FUNC WEAK DEFAULT 12 _ZNSt3__113__tree_removeI
286:   FUNC WEAK DEFAULT 12 _ZNSt3__16__treeINS_12__v
287:   FUNC GLOBAL DEFAULT 12 _ZN7android6fs_mgr23GetBa
