 0x000000000000000e (SONAME)             Library soname: [libhidl-gen-hash.so]
  
Symbol   contains 836 entries:
Num:   Type Bind Vis Ndx Name
0:   NOTYPE LOCAL DEFAULT UND
1:   NOTYPE WEAK DEFAULT UND __gmon_start__
2:   NOTYPE WEAK DEFAULT UND _ITM_deregisterTMCloneTab
3:   NOTYPE WEAK DEFAULT UND _ITM_registerTMCloneTable
4:   FUNC WEAK DEFAULT UND __cxa_finalize@GLIBC_2.2.5 (2)
5:   NOTYPE WEAK DEFAULT UND _Jv_RegisterClasses
6:   FUNC GLOBAL DEFAULT UND SHA256
7:   FUNC GLOBAL DEFAULT UND _ZN7android4base10LogMess
8:   FUNC GLOBAL DEFAULT UND _ZN7android4base10LogMess
9:   FUNC GLOBAL DEFAULT UND _ZN7android4base10LogMess
10:   FUNC GLOBAL DEFAULT UND _ZNKSt3__112basic_stringI
11:   FUNC GLOBAL DEFAULT UND _ZNKSt3__120__vector_base
12:   FUNC GLOBAL DEFAULT UND _ZNKSt3__121__basic_strin
13:   FUNC GLOBAL DEFAULT UND _ZNKSt3__123__match_any_b
14:   FUNC GLOBAL DEFAULT UND _ZNKSt3__16locale4nameEv
15:   FUNC GLOBAL DEFAULT UND _ZNKSt3__16locale9has_fac
16:   FUNC GLOBAL DEFAULT UND _ZNKSt3__16locale9use_fac
17:   FUNC GLOBAL DEFAULT UND _ZNKSt3__18ios_base6getlo
18:   FUNC GLOBAL DEFAULT UND _ZNSt3__112basic_stringIc
19:   FUNC GLOBAL DEFAULT UND _ZNSt3__112basic_stringIc
20:   FUNC GLOBAL DEFAULT UND _ZNSt3__112basic_stringIc
21:   FUNC GLOBAL DEFAULT UND _ZNSt3__112basic_stringIc
22:   FUNC GLOBAL DEFAULT UND _ZNSt3__112basic_stringIc
23:   FUNC GLOBAL DEFAULT UND _ZNSt3__112basic_stringIc
24:   FUNC GLOBAL DEFAULT UND _ZNSt3__112basic_stringIc
25:   FUNC GLOBAL DEFAULT UND _ZNSt3__112basic_stringIc
26:   FUNC GLOBAL DEFAULT UND _ZNSt3__112basic_stringIc
27:   FUNC GLOBAL DEFAULT UND _ZNSt3__112basic_stringIc
28:   FUNC GLOBAL DEFAULT UND _ZNSt3__113basic_istreamI
29:   FUNC GLOBAL DEFAULT UND _ZNSt3__113basic_istreamI
30:   FUNC GLOBAL DEFAULT UND _ZNSt3__113basic_istreamI
31:   FUNC GLOBAL DEFAULT UND _ZNSt3__113basic_istreamI
32:   FUNC GLOBAL DEFAULT UND _ZNSt3__113basic_ostreamI
33:   FUNC GLOBAL DEFAULT UND _ZNSt3__113basic_ostreamI
34:   FUNC GLOBAL DEFAULT UND _ZNSt3__113basic_ostreamI
35:   FUNC GLOBAL DEFAULT UND _ZNSt3__113basic_ostreamI
36:   FUNC GLOBAL DEFAULT UND _ZNSt3__113basic_ostreamI
37:   FUNC GLOBAL DEFAULT UND _ZNSt3__113basic_ostreamI
38:   FUNC GLOBAL DEFAULT UND _ZNSt3__113basic_ostreamI
39:   FUNC GLOBAL DEFAULT UND _ZNSt3__113basic_ostreamI
40:   FUNC GLOBAL DEFAULT UND _ZNSt3__113basic_ostreamI
41:   FUNC GLOBAL DEFAULT UND _ZNSt3__114basic_iostream
42:   FUNC GLOBAL DEFAULT UND _ZNSt3__114basic_iostream
43:   FUNC GLOBAL DEFAULT UND _ZNSt3__114basic_iostream
44:   FUNC GLOBAL DEFAULT UND _ZNSt3__115__get_classnam
45:   FUNC GLOBAL DEFAULT UND _ZNSt3__115basic_streambu
46:   FUNC GLOBAL DEFAULT UND _ZNSt3__115basic_streambu
47:   FUNC GLOBAL DEFAULT UND _ZNSt3__115basic_streambu
48:   FUNC GLOBAL DEFAULT UND _ZNSt3__115basic_streambu
49:   FUNC GLOBAL DEFAULT UND _ZNSt3__115basic_streambu
50:   FUNC GLOBAL DEFAULT UND _ZNSt3__115basic_streambu
51:   FUNC GLOBAL DEFAULT UND _ZNSt3__115basic_streambu
52:   FUNC GLOBAL DEFAULT UND _ZNSt3__115basic_streambu
53:   FUNC GLOBAL DEFAULT UND _ZNSt3__115basic_streambu
54:   FUNC GLOBAL DEFAULT UND _ZNSt3__119__shared_weak_
55:   FUNC GLOBAL DEFAULT UND _ZNSt3__119__shared_weak_
56:   FUNC GLOBAL DEFAULT UND _ZNSt3__120__get_collatio
57:   OBJECT GLOBAL DEFAULT UND _ZNSt3__15ctypeIcE2idE
58:   FUNC GLOBAL DEFAULT UND _ZNSt3__16localeC1ERKS0_
59:   FUNC GLOBAL DEFAULT UND _ZNSt3__16localeC1Ev
60:   FUNC GLOBAL DEFAULT UND _ZNSt3__16localeD1Ev
61:   OBJECT GLOBAL DEFAULT UND _ZNSt3__17codecvtIcc11__m
62:   OBJECT GLOBAL DEFAULT UND _ZNSt3__17collateIcE2idE
63:   FUNC GLOBAL DEFAULT UND _ZNSt3__18ios_base4initEP
64:   FUNC GLOBAL DEFAULT UND _ZNSt3__18ios_base5clearE
65:   FUNC GLOBAL DEFAULT UND _ZNSt3__19basic_iosIcNS_1
66:   FUNC GLOBAL DEFAULT UND _ZNSt3__1plIcNS_11char_tr
67:   OBJECT GLOBAL DEFAULT UND _ZTINSt3__113basic_istrea
68:   OBJECT GLOBAL DEFAULT UND _ZTINSt3__113basic_ostrea
69:   OBJECT GLOBAL DEFAULT UND _ZTINSt3__114basic_iostre
70:   OBJECT GLOBAL DEFAULT UND _ZTINSt3__115basic_stream
71:   OBJECT GLOBAL DEFAULT UND _ZTINSt3__119__shared_wea
72:   OBJECT GLOBAL DEFAULT UND _ZTVN10__cxxabiv117__clas
73:   OBJECT GLOBAL DEFAULT UND _ZTVN10__cxxabiv120__si_c
74:   OBJECT GLOBAL DEFAULT UND _ZTVNSt3__114__shared_cou
75:   OBJECT GLOBAL DEFAULT UND _ZTVNSt3__119__shared_wea
76:   OBJECT GLOBAL DEFAULT UND _ZTVNSt3__18ios_baseE
77:   OBJECT GLOBAL DEFAULT UND _ZTVNSt3__19basic_iosIcNS
78:   FUNC GLOBAL DEFAULT UND _ZThn16_NSt3__114basic_io
79:   FUNC GLOBAL DEFAULT UND _ZThn16_NSt3__114basic_io
80:   FUNC GLOBAL DEFAULT UND _ZTv0_n24_NSt3__113basic_
81:   FUNC GLOBAL DEFAULT UND _ZTv0_n24_NSt3__113basic_
82:   FUNC GLOBAL DEFAULT UND _ZTv0_n24_NSt3__113basic_
83:   FUNC GLOBAL DEFAULT UND _ZTv0_n24_NSt3__113basic_
84:   FUNC GLOBAL DEFAULT UND _ZTv0_n24_NSt3__114basic_
85:   FUNC GLOBAL DEFAULT UND _ZTv0_n24_NSt3__114basic_
86:   FUNC GLOBAL DEFAULT UND _ZdaPv
87:   FUNC GLOBAL DEFAULT UND _ZdlPv
88:   FUNC GLOBAL DEFAULT UND _ZdlPvSt11align_val_t
89:   FUNC GLOBAL DEFAULT UND _Znam
90:   FUNC GLOBAL DEFAULT UND _Znwm
91:   FUNC GLOBAL DEFAULT UND _ZnwmSt11align_val_t
92:   FUNC GLOBAL DEFAULT UND __cxa_atexit@GLIBC_2.2.5 (2)
93:   FUNC GLOBAL DEFAULT UND __cxa_guard_acquire
94:   FUNC GLOBAL DEFAULT UND __cxa_guard_release
95:   FUNC GLOBAL DEFAULT UND __stack_chk_fail@GLIBC_2.4 (3)
96:   FUNC GLOBAL DEFAULT UND abort@GLIBC_2.2.5 (2)
97:   FUNC GLOBAL DEFAULT UND fclose@GLIBC_2.2.5 (2)
98:   FUNC GLOBAL DEFAULT UND fflush@GLIBC_2.2.5 (2)
99:   FUNC GLOBAL DEFAULT UND fopen@GLIBC_2.2.5 (2)
100:   FUNC GLOBAL DEFAULT UND fread@GLIBC_2.2.5 (2)
101:   FUNC GLOBAL DEFAULT UND fseek@GLIBC_2.2.5 (2)
102:   FUNC GLOBAL DEFAULT UND fseeko@GLIBC_2.2.5 (2)
103:   FUNC GLOBAL DEFAULT UND ftello@GLIBC_2.2.5 (2)
104:   FUNC GLOBAL DEFAULT UND fwrite@GLIBC_2.2.5 (2)
105:   FUNC GLOBAL DEFAULT UND memcmp@GLIBC_2.2.5 (2)
106:   FUNC GLOBAL DEFAULT UND memcpy@GLIBC_2.14 (4)
107:   FUNC GLOBAL DEFAULT UND memmove@GLIBC_2.2.5 (2)
108:   FUNC GLOBAL DEFAULT UND memset@GLIBC_2.2.5 (2)
109:   FUNC GLOBAL DEFAULT UND strlen@GLIBC_2.2.5 (2)
110:   FUNC WEAK DEFAULT 12 _ZNSt3__111basic_regexIcN
111:   FUNC WEAK DEFAULT 12 _ZNSt3__110unique_ptrINS_
112:   FUNC WEAK DEFAULT 12 _ZNSt3__111basic_regexIcN
113:   FUNC WEAK DEFAULT 12 _ZNSt3__112__match_charIc
114:   FUNC WEAK DEFAULT 12 _ZNSt3__117__repeat_one_l
115:   FUNC WEAK DEFAULT 12 _ZNSt3__14pairIKNS_12basi
116:   OBJECT WEAK DEFAULT 21 _ZTINSt3__110__r_anchorIc
117:   FUNC WEAK DEFAULT 12 _ZNSt3__111basic_regexIcN
118:   FUNC WEAK DEFAULT 12 _ZNSt3__119basic_ostrings
119:   FUNC WEAK DEFAULT 12 _ZNSt3__110unique_ptrINS_
120:   FUNC WEAK DEFAULT 12 _ZNSt3__111char_traitsIcE
121:   FUNC WEAK DEFAULT 12 _ZNSt3__111regex_matchINS
122:   FUNC WEAK DEFAULT 12 _ZNSt3__117__compressed_p
123:   FUNC WEAK DEFAULT 12 _ZNSt3__19allocatorINS_4p
124:   OBJECT WEAK DEFAULT 21 _ZTINSt3__117__repeat_one
125:   FUNC WEAK DEFAULT 12 _ZNSt3__111basic_regexIcN
126:   FUNC WEAK DEFAULT 12 _ZNSt3__111basic_regexIcN
127:   FUNC WEAK DEFAULT 12 _ZNSt3__122__compressed_p
128:   FUNC WEAK DEFAULT 12 _ZNSt3__14pairIKNS_12basi
129:   FUNC WEAK DEFAULT 12 _ZNKSt3__112regex_traitsI
130:   OBJECT WEAK DEFAULT 21 _ZTINSt3__119basic_ostrin
131:   OBJECT WEAK DEFAULT 21 _ZTVNSt3__115basic_string
132:   OBJECT WEAK DEFAULT 21 _ZTVNSt3__116__owns_one_s
133:   FUNC WEAK DEFAULT 12 _ZNKSt3__112regex_traitsI
134:   FUNC WEAK DEFAULT 12 _ZNSt3__114__split_buffer
135:   FUNC WEAK DEFAULT 12 _ZNSt3__123__match_any_bu
136:   FUNC WEAK DEFAULT 12 _ZNSt3__19__launderIKNS_4
137:   FUNC WEAK DEFAULT 12 _ZNSt3__116allocator_trai
138:   FUNC WEAK DEFAULT 12 _ZNSt3__16vectorINS_9sub_
139:   OBJECT WEAK DEFAULT 9 _ZTSNSt3__113__empty_stat
140:   FUNC WEAK DEFAULT 12 _ZNKSt3__16vectorINS_9sub
141:   FUNC WEAK DEFAULT 12 _ZNSt3__113__vector_baseI
142:   FUNC WEAK DEFAULT 12 _ZNSt3__116allocator_trai
143:   FUNC WEAK DEFAULT 12 _ZNSt3__117__compressed_p
144:   FUNC WEAK DEFAULT 12 _ZNSt3__122__compressed_p
145:   FUNC WEAK DEFAULT 12 _ZNSt3__19allocatorINS_12
146:   FUNC WEAK DEFAULT 12 _ZNKSt3__111__end_stateIc
147:   FUNC WEAK DEFAULT 12 _ZNKSt3__112regex_traitsI
148:   FUNC WEAK DEFAULT 12 _ZNSt3__111basic_regexIcN
149:   FUNC WEAK DEFAULT 12 _ZNSt3__116allocator_trai
150:   FUNC WEAK DEFAULT 12 _ZNSt3__117_DeallocateCal
151:   FUNC WEAK DEFAULT 12 _ZNSt3__122__compressed_p
152:   OBJECT WEAK DEFAULT 21 _ZTINSt3__120__shared_ptr
153:   OBJECT WEAK DEFAULT 21 _ZTVNSt3__123__match_any_
154:   FUNC WEAK DEFAULT 12 _ZNSt3__116allocator_trai
155:   FUNC WEAK DEFAULT 12 _ZNSt3__117__compressed_p
156:   FUNC WEAK DEFAULT 12 _ZNSt3__120__bracket_expr
157:   OBJECT WEAK DEFAULT 21 _ZTINSt3__16__nodeIcEE
158:   FUNC WEAK DEFAULT 12 _ZNSt3__123__match_any_bu
159:   OBJECT WEAK DEFAULT 21 _ZTVNSt3__128__begin_mark
160:   FUNC WEAK DEFAULT 12 _ZN7android8HashFileC2Ev
161:   FUNC WEAK DEFAULT 12 _ZNSt3__114__split_buffer
162:   FUNC WEAK DEFAULT 12 _ZNSt3__16__treeINS_12__v
163:   FUNC WEAK DEFAULT 12 _ZNSt3__116allocator_trai
164:   FUNC WEAK DEFAULT 12 _ZNSt3__116allocator_trai
165:   FUNC WEAK DEFAULT 12 _ZNSt3__117__compressed_p
166:   FUNC WEAK DEFAULT 12 _ZNSt3__111basic_regexIcN
167:   OBJECT WEAK DEFAULT 21 _ZTVNSt3__111__alternateI
168:   FUNC WEAK DEFAULT 12 _ZNKSt3__112regex_traitsI
169:   FUNC WEAK DEFAULT 12 _ZNSt3__122__compressed_p
170:   FUNC WEAK DEFAULT 12 _ZNSt3__124__put_characte
171:   FUNC WEAK DEFAULT 12 _ZNSt3__14pairIPKcS2_EC2I
172:   OBJECT WEAK DEFAULT 21 _ZTVNSt3__110__back_refIc
173:   FUNC WEAK DEFAULT 12 _ZNSt3__110__back_refIcED
174:   FUNC WEAK DEFAULT 12 _ZNSt3__113__vector_baseI
175:   FUNC WEAK DEFAULT 12 _ZNSt3__120__bracket_expr
176:   FUNC WEAK DEFAULT 12 _ZNSt3__14pairINS_15__tre
177:   FUNC WEAK DEFAULT 12 _ZNKSt3__120__bracket_exp
178:   FUNC WEAK DEFAULT 12 _ZNSt3__111basic_regexIcN
179:   OBJECT WEAK DEFAULT 21 _ZTINSt3__120__bracket_ex
180:   FUNC WEAK DEFAULT 12 _ZNSt3__111basic_regexIcN
181:   FUNC WEAK DEFAULT 12 _ZNSt3__117__compressed_p
182:   FUNC WEAK DEFAULT 12 _ZNSt3__122__compressed_p
183:   FUNC WEAK DEFAULT 12 _ZNSt3__16vectorINS_4pair
184:   FUNC WEAK DEFAULT 12 _ZNSt3__116allocator_trai
185:   FUNC WEAK DEFAULT 12 _ZNSt3__14pairIKNS_12basi
186:   FUNC WEAK DEFAULT 12 _ZNSt3__111basic_regexIcN
187:   FUNC WEAK DEFAULT 12 _ZNSt3__16vectorINS_9sub_
188:   OBJECT WEAK DEFAULT 21 _ZTCNSt3__118basic_string
189:   OBJECT WEAK DEFAULT 9 _ZTSNSt3__111__alternateI
190:   FUNC WEAK DEFAULT 12 _ZNSt3__111char_traitsIcE
191:   FUNC WEAK DEFAULT 12 _ZNSt3__116allocator_trai
192:   FUNC WEAK DEFAULT 12 _ZNSt3__116allocator_trai
193:   FUNC WEAK DEFAULT 12 _ZNSt3__116allocator_trai
194:   FUNC WEAK DEFAULT 12 _ZNSt3__117__owns_two_sta
195:   FUNC WEAK DEFAULT 12 _ZNSt3__16vectorIhNS_9all
196:   FUNC WEAK DEFAULT 12 _ZNSt3__110__back_refIcED
197:   FUNC WEAK DEFAULT 12 _ZNSt3__122__tree_key_val
198:   FUNC WEAK DEFAULT 12 _ZNSt3__14pairINS_12basic
199:   FUNC WEAK DEFAULT 12 _ZNKSt3__112regex_traitsI
200:   FUNC WEAK DEFAULT 12 _ZNSt3__116allocator_trai
201:   FUNC WEAK DEFAULT 12 _ZNSt3__122__compressed_p
202:   FUNC WEAK DEFAULT 12 _ZNSt3__16__loopIcED0Ev
203:   FUNC WEAK DEFAULT 12 _ZNSt3__117__compressed_p
204:   FUNC WEAK DEFAULT 12 _ZNSt3__120__match_char_c
205:   FUNC WEAK DEFAULT 12 _ZNSt3__111basic_regexIcN
206:   FUNC WEAK DEFAULT 12 _ZNSt3__114__split_buffer
207:   FUNC WEAK DEFAULT 12 _ZNSt3__117__compressed_p
208:   FUNC WEAK DEFAULT 12 _ZNSt3__16vectorIcNS_9all
209:   FUNC WEAK DEFAULT 12 _ZNSt3__117__owns_two_sta
210:   FUNC WEAK DEFAULT 12 _ZNSt3__122__compressed_p
211:   OBJECT WEAK DEFAULT 21 _ZTVNSt3__116__back_ref_i
212:   FUNC WEAK DEFAULT 12 _ZNSt3__111basic_regexIcN
213:   FUNC WEAK DEFAULT 12 _ZNSt3__113__empty_stateI
214:   FUNC WEAK DEFAULT 12 _ZNSt3__116allocator_trai
215:   FUNC WEAK DEFAULT 12 _ZNSt3__117__compressed_p
216:   FUNC WEAK DEFAULT 12 _ZNSt3__117__compressed_p
217:   FUNC WEAK DEFAULT 12 _ZNSt3__16vectorINS_4pair
218:   FUNC WEAK DEFAULT 12 _ZNSt3__17getlineIcNS_11c
219:   FUNC WEAK DEFAULT 12 _ZNKSt3__121__empty_non_o
220:   FUNC WEAK DEFAULT 12 _ZNSt3__111basic_regexIcN
221:   FUNC WEAK DEFAULT 12 _ZNSt3__117_DeallocateCal
222:   FUNC WEAK DEFAULT 12 _ZNSt3__16__loopIcED2Ev
223:   OBJECT WEAK DEFAULT 21 _ZTINSt3__110__l_anchorIc
224:   FUNC WEAK DEFAULT 12 _ZNKSt3__112regex_traitsI
225:   FUNC WEAK DEFAULT 12 _ZNSt3__114__split_buffer
226:   FUNC WEAK DEFAULT 12 _ZNSt3__120__match_char_c
227:   FUNC WEAK DEFAULT 12 _ZNSt3__16__treeINS_12__v
228:   OBJECT WEAK DEFAULT 21 _ZTINSt3__123__match_any_
229:   FUNC WEAK DEFAULT 12 _ZNKSt3__16vectorINS_7__s
230:   FUNC WEAK DEFAULT 12 _ZNSt3__116allocator_trai
231:   OBJECT WEAK DEFAULT 21 _ZTINSt3__114basic_ifstre
232:   OBJECT WEAK DEFAULT 9 _ZTSNSt3__118basic_string
233:   FUNC GLOBAL DEFAULT 12 _ZN7android4HashC2ERKNSt3
234:   FUNC WEAK DEFAULT 12 _ZNSt3__113basic_filebufI
235:   FUNC WEAK DEFAULT 12 _ZNSt3__116allocator_trai
236:   FUNC WEAK DEFAULT 12 _ZNSt3__122__compressed_p
237:   FUNC WEAK DEFAULT 12 _ZNSt3__122__compressed_p
238:   FUNC WEAK DEFAULT 12 _ZNSt3__19__launderIKNS_4
239:   FUNC WEAK DEFAULT 12 _ZNSt3__16vectorINS_7__st
240:   OBJECT WEAK DEFAULT 21 _ZTINSt3__115__word_bound
241:   FUNC WEAK DEFAULT 12 _ZNSt3__111basic_regexIcN
242:   FUNC WEAK DEFAULT 12 _ZNSt3__113__empty_stateI
243:   FUNC WEAK DEFAULT 12 _ZNSt3__113match_resultsI
244:   FUNC WEAK DEFAULT 12 _ZNSt3__116allocator_trai
245:   OBJECT WEAK DEFAULT 9 _ZTSNSt3__116__owns_one_s
246:   FUNC WEAK DEFAULT 12 _ZNSt3__116allocator_trai
247:   FUNC WEAK DEFAULT 12 _ZNSt3__122__compressed_p
248:   FUNC WEAK DEFAULT 12 _ZNK7android8HashFile6loo
249:   FUNC WEAK DEFAULT 12 _ZNKSt3__126__end_marked_
250:   FUNC WEAK DEFAULT 12 _ZNSt3__117__compressed_p
251:   FUNC WEAK DEFAULT 12 _ZNSt3__126__end_marked_s
252:   FUNC WEAK DEFAULT 12 _ZNSt3__14pairIKNS_12basi
253:   FUNC WEAK DEFAULT 12 _ZNKSt3__111basic_regexIc
254:   FUNC WEAK DEFAULT 12 _ZNSt3__114__split_buffer
255:   FUNC WEAK DEFAULT 12 _ZNSt3__118__tree_left_ro
256:   OBJECT WEAK DEFAULT 26 _ZZN7android8HashFile5par
257:   FUNC WEAK DEFAULT 12 _ZNSt3__112__tuple_implIN
258:   FUNC WEAK DEFAULT 12 _ZNSt3__116allocator_trai
259:   FUNC WEAK DEFAULT 12 _ZNSt3__117__compressed_p
260:   OBJECT WEAK DEFAULT 21 _ZTINSt3__118__match_char
261:   OBJECT WEAK DEFAULT 21 _ZTINSt3__120__match_char
262:   OBJECT WEAK DEFAULT 9 _ZTSNSt3__110__r_anchorIc
263:   OBJECT WEAK DEFAULT 9 _ZTSNSt3__115__has_one_st
264:   FUNC WEAK DEFAULT 12 _ZNSt3__114__split_buffer
265:   FUNC WEAK DEFAULT 12 _ZNSt3__122__compressed_p
266:   FUNC WEAK DEFAULT 12 _ZNSt3__16vectorIhNS_9all
267:   FUNC WEAK DEFAULT 12 _ZNSt3__122__compressed_p
268:   FUNC WEAK DEFAULT 12 _ZNSt3__16vectorINS_4pair
269:   FUNC WEAK DEFAULT 12 _ZNKSt3__112regex_traitsI
270:   FUNC WEAK DEFAULT 12 _ZNSt3__111basic_regexIcN
271:   FUNC WEAK DEFAULT 12 _ZNSt3__113basic_filebufI
272:   FUNC WEAK DEFAULT 12 _ZNSt3__116allocator_trai
273:   FUNC WEAK DEFAULT 12 _ZNSt3__126__end_marked_s
274:   FUNC WEAK DEFAULT 12 _ZNSt3__16__treeINS_12__v
275:   FUNC WEAK DEFAULT 12 _ZNSt3__19allocatorINS_20
276:   FUNC WEAK DEFAULT 12 _ZN7android4base14EagerEv
277:   FUNC WEAK DEFAULT 12 _ZNKSt3__111__lookaheadIc
278:   FUNC WEAK DEFAULT 12 _ZNSt3__117__compressed_p
279:   FUNC WEAK DEFAULT 12 _ZNSt3__19__launderINS_4p
280:   OBJECT WEAK DEFAULT 21 _ZTINSt3__117__owns_two_s
281:   FUNC WEAK DEFAULT 12 _ZNSt3__114__split_buffer
282:   FUNC WEAK DEFAULT 12 _ZNSt3__16__treeINS_12__v
283:   OBJECT WEAK DEFAULT 21 _ZTINSt3__111__alternateI
284:   FUNC WEAK DEFAULT 12 _ZNSt3__110shared_ptrINS_
285:   FUNC WEAK DEFAULT 12 _ZNSt3__114__split_buffer
286:   FUNC WEAK DEFAULT 12 _ZNSt3__116allocator_trai
287:   FUNC WEAK DEFAULT 12 _ZNSt3__116allocator_trai
288:   FUNC WEAK DEFAULT 12 _ZNSt3__116allocator_trai
289:   FUNC WEAK DEFAULT 12 _ZNSt3__117__compressed_p
290:   FUNC WEAK DEFAULT 12 _ZNSt3__122__compressed_p
291:   FUNC WEAK DEFAULT 12 _ZNSt3__14pairINS_12basic
292:   FUNC WEAK DEFAULT 12 _ZNSt3__111basic_regexIcN
293:   FUNC WEAK DEFAULT 12 _ZNSt3__111basic_regexIcN
294:   FUNC WEAK DEFAULT 12 _ZNSt3__121__empty_non_ow
295:   FUNC WEAK DEFAULT 12 _ZNSt3__122__compressed_p
296:   FUNC WEAK DEFAULT 12 _ZNSt3__116allocator_trai
297:   FUNC WEAK DEFAULT 12 _ZNSt3__16__treeINS_12__v
298:   FUNC WEAK DEFAULT 12 _ZNKSt3__112__match_charI
299:   FUNC WEAK DEFAULT 12 _ZNSt3__114__split_buffer
300:   FUNC WEAK DEFAULT 12 _ZNSt3__115__has_one_stat
301:   FUNC WEAK DEFAULT 12 _ZNSt3__19allocatorIPNS_7
302:   OBJECT WEAK DEFAULT 9 _ZTSNSt3__16__nodeIcEE
303:   OBJECT WEAK DEFAULT 21 _ZTVNSt3__115__word_bound
304:   FUNC WEAK DEFAULT 12 _ZNKSt3__16vectorINS_12ba
305:   FUNC WEAK DEFAULT 12 _ZNSt3__116allocator_trai
306:   FUNC WEAK DEFAULT 12 _ZNSt3__16__treeINS_12__v
307:   OBJECT WEAK DEFAULT 21 _ZTCNSt3__118basic_string
308:   FUNC GLOBAL DEFAULT 13 _init
309:   FUNC WEAK DEFAULT 12 _ZNSt3__111basic_regexIcN
310:   FUNC WEAK DEFAULT 12 _ZNSt3__116allocator_trai
311:   FUNC WEAK DEFAULT 12 _ZNSt3__117__compressed_p
312:   FUNC WEAK DEFAULT 12 _ZNSt3__16__treeINS_12__v
313:   FUNC WEAK DEFAULT 12 _ZNSt3__112regex_traitsIc
314:   FUNC WEAK DEFAULT 12 _ZNSt3__113basic_filebufI
315:   FUNC WEAK DEFAULT 12 _ZNSt3__114__split_buffer
316:   FUNC WEAK DEFAULT 12 _ZNSt3__121__empty_non_ow
317:   FUNC WEAK DEFAULT 12 _ZNSt3__16vectorINS_4pair
318:   FUNC WEAK DEFAULT 12 _ZNSt3__114basic_ifstream
319:   FUNC WEAK DEFAULT 12 _ZNSt3__116allocator_trai
320:   FUNC WEAK DEFAULT 12 _ZNSt3__16__treeINS_12__v
321:   OBJECT WEAK DEFAULT 9 _ZTSNSt3__128__begin_mark
322:   FUNC WEAK DEFAULT 12 _ZNSt3__115__has_one_stat
323:   FUNC WEAK DEFAULT 12 _ZNSt3__113basic_filebufI
324:   FUNC WEAK DEFAULT 12 _ZNSt3__118__match_char_i
325:   OBJECT WEAK DEFAULT 9 _ZTSNSt3__116__back_ref_i
326:   FUNC WEAK DEFAULT 12 _ZNSt3__111basic_regexIcN
327:   FUNC WEAK DEFAULT 12 _ZNSt3__111char_traitsIcE
328:   FUNC WEAK DEFAULT 12 _ZNSt3__114basic_ifstream
329:   FUNC WEAK DEFAULT 12 _ZNSt3__116allocator_trai
330:   FUNC WEAK DEFAULT 12 _ZNSt3__116allocator_trai
331:   FUNC WEAK DEFAULT 12 _ZNSt3__14pairIccEC2ILb1E
332:   FUNC WEAK DEFAULT 12 _ZNSt3__16vectorINS_4pair
333:   FUNC GLOBAL DEFAULT 12 _ZN7android4Hash9hexStrin
334:   FUNC WEAK DEFAULT 12 _ZNSt3__110__r_anchorIcED
335:   FUNC WEAK DEFAULT 12 _ZNSt3__111basic_regexIcN
336:   FUNC WEAK DEFAULT 12 _ZNSt3__117__compressed_p
337:   FUNC WEAK DEFAULT 12 _ZNSt3__19allocatorINS_11
338:   FUNC WEAK DEFAULT 12 _ZNSt3__19allocatorINS_9s
339:   OBJECT WEAK DEFAULT 21 _ZTINSt3__114default_dele
340:   FUNC GLOBAL DEFAULT 12 _ZN7android4Hash7getHashE
341:   FUNC WEAK DEFAULT 12 _ZNSt3__111basic_regexIcN
342:   FUNC WEAK DEFAULT 12 _ZNSt3__115basic_stringbu
343:   FUNC WEAK DEFAULT 12 _ZNSt3__116allocator_trai
344:   FUNC WEAK DEFAULT 12 _ZNSt3__14pairIKNS_12basi
345:   FUNC WEAK DEFAULT 12 _ZNSt3__16vectorINS_9sub_
346:   FUNC WEAK DEFAULT 12 _ZNSt3__111basic_regexIcN
347:   FUNC WEAK DEFAULT 12 _ZNSt3__111basic_regexIcN
348:   FUNC WEAK DEFAULT 12 _ZNSt3__112__deque_baseIN
349:   FUNC WEAK DEFAULT 12 _ZNSt3__113basic_filebufI
350:   FUNC WEAK DEFAULT 12 _ZNSt3__114basic_ifstream
351:   FUNC WEAK DEFAULT 12 _ZNSt3__122__compressed_p
352:   FUNC GLOBAL DEFAULT 12 _ZN7android4Hash14getMuta
353:   FUNC WEAK DEFAULT 12 _ZN7android4base18MakeEag
354:   FUNC WEAK DEFAULT 12 _ZNSt3__114__split_buffer
355:   FUNC WEAK DEFAULT 12 _ZNSt3__117__compressed_p
356:   FUNC WEAK DEFAULT 12 _ZNSt3__113basic_filebufI
357:   FUNC WEAK DEFAULT 12 _ZNSt3__114__split_buffer
358:   FUNC WEAK DEFAULT 12 _ZNSt3__116allocator_trai
359:   FUNC WEAK DEFAULT 12 _ZNSt3__118__match_char_i
360:   FUNC WEAK DEFAULT 12 _ZN7android8HashFile5pars
361:   FUNC WEAK DEFAULT 12 _ZNKSt3__111basic_regexIc
362:   FUNC WEAK DEFAULT 12 _ZNSt3__116allocator_trai
363:   OBJECT WEAK DEFAULT 21 _ZTTNSt3__119basic_ostrin
364:   FUNC WEAK DEFAULT 12 _ZNSt3__110__r_anchorIcED
365:   FUNC WEAK DEFAULT 12 _ZNKSt3__118__match_char_
366:   FUNC WEAK DEFAULT 12 _ZNSt3__110unique_ptrINS_
367:   FUNC WEAK DEFAULT 12 _ZNSt3__112basic_stringIc
368:   FUNC WEAK DEFAULT 12 _ZNSt3__113__vector_baseI
369:   FUNC WEAK DEFAULT 12 _ZNSt3__117__compressed_p
370:   OBJECT WEAK DEFAULT 21 _ZTINSt3__112__match_char
371:   FUNC WEAK DEFAULT 12 _ZNSt3__111basic_regexIcN
372:   FUNC WEAK DEFAULT 12 _ZNSt3__116allocator_trai
373:   FUNC WEAK DEFAULT 12 _ZNSt3__117__compressed_p
374:   FUNC WEAK DEFAULT 12 _ZNSt3__19allocatorINS_11
375:   OBJECT WEAK DEFAULT 9 _ZTSNSt3__110__l_anchorIc
376:   FUNC WEAK DEFAULT 12 _ZNSt3__16__treeINS_12__v
377:   OBJECT WEAK DEFAULT 9 _ZTSNSt3__119basic_ostrin
378:   OBJECT WEAK DEFAULT 21 _ZTVNSt3__121__empty_non_
379:   FUNC WEAK DEFAULT 12 _ZNSt3__111char_traitsIcE
380:   FUNC WEAK DEFAULT 12 _ZNSt3__16vectorINS_4pair
381:   FUNC WEAK DEFAULT 12 _ZNKSt3__112regex_traitsI
382:   FUNC WEAK DEFAULT 12 _ZNSt3__16vectorIcNS_9all
383:   OBJECT WEAK DEFAULT 21 _ZTINSt3__118__back_ref_c
384:   FUNC WEAK DEFAULT 12 _ZNKSt3__120__shared_ptr_
385:   FUNC WEAK DEFAULT 12 _ZNSt3__14pairIccEC2IRcS3
386:   OBJECT WEAK DEFAULT 21 _ZTINSt3__118basic_string
387:   OBJECT WEAK DEFAULT 21 _ZTVNSt3__119basic_ostrin
388:   FUNC WEAK DEFAULT 12 _ZNSt3__116allocator_trai
389:   FUNC WEAK DEFAULT 12 _ZNSt3__116allocator_trai
390:   FUNC WEAK DEFAULT 12 _ZNSt3__16__treeINS_12__v
391:   FUNC WEAK DEFAULT 12 _ZNSt3__19allocatorIcE9co
392:   OBJECT WEAK DEFAULT 21 _ZTVNSt3__114basic_ifstre
393:   FUNC WEAK DEFAULT 12 _ZNSt3__111basic_regexIcN
394:   FUNC WEAK DEFAULT 12 _ZNSt3__116allocator_trai
395:   FUNC WEAK DEFAULT 12 _ZNSt3__111basic_regexIcN
396:   FUNC WEAK DEFAULT 12 _ZNSt3__14pairIKNS_12basi
397:   FUNC WEAK DEFAULT 12 _ZNSt3__14pairImPKcEC2ILb
398:   FUNC WEAK DEFAULT 12 _ZNSt3__16vectorIcNS_9all
399:   FUNC GLOBAL DEFAULT 14 _fini
400:   FUNC WEAK DEFAULT 12 _ZNSt3__113__vector_baseI
401:   FUNC WEAK DEFAULT 12 _ZNSt3__117__compressed_p
402:   OBJECT WEAK DEFAULT 21 _ZTINSt3__113__empty_stat
403:   OBJECT WEAK DEFAULT 21 _ZTVNSt3__111__match_anyI
404:   FUNC WEAK DEFAULT 12 _ZNKSt3__16vectorINS_9sub
405:   FUNC WEAK DEFAULT 12 _ZNSt3__122__compressed_p
406:   FUNC WEAK DEFAULT 12 _ZNSt3__16vectorINS_9sub_
407:   FUNC WEAK DEFAULT 12 _ZNSt3__19allocatorINS_11
408:   OBJECT WEAK DEFAULT 9 _ZTSNSt3__115basic_string
409:   FUNC WEAK DEFAULT 12 _ZNSt3__16__treeINS_12__v
410:   FUNC WEAK DEFAULT 12 _ZNSt3__111basic_regexIcN
411:   FUNC WEAK DEFAULT 12 _ZNSt3__16vectorIhNS_9all
412:   OBJECT WEAK DEFAULT 21 _ZTINSt3__115basic_string
413:   FUNC WEAK DEFAULT 12 _ZNSt3__116allocator_trai
414:   FUNC WEAK DEFAULT 12 _ZNSt3__122__compressed_p
415:   FUNC WEAK DEFAULT 12 _ZNSt3__14pairIKNS_12basi
416:   FUNC WEAK DEFAULT 12 _ZNSt3__19allocatorIhE9co
417:   OBJECT WEAK DEFAULT 21 _ZTVNSt3__113__empty_stat
418:   FUNC WEAK DEFAULT 12 _ZNSt3__111basic_regexIcN
419:   FUNC WEAK DEFAULT 12 _ZNSt3__115basic_stringbu
420:   FUNC WEAK DEFAULT 12 _ZNSt3__116allocator_trai
421:   OBJECT WEAK DEFAULT 21 _ZTINSt3__116__back_ref_i
422:   FUNC WEAK DEFAULT 12 _ZNSt3__111basic_regexIcN
423:   FUNC WEAK DEFAULT 12 _ZNSt3__112basic_stringIc
424:   FUNC WEAK DEFAULT 12 _ZNSt3__116allocator_trai
425:   FUNC WEAK DEFAULT 12 _ZNSt3__15dequeINS_7__sta
426:   OBJECT WEAK DEFAULT 9 _ZTSNSt3__111__match_anyI
427:   FUNC WEAK DEFAULT 12 _ZNSt3__113__vector_baseI
428:   FUNC WEAK DEFAULT 12 _ZNSt3__122__compressed_p
429:   FUNC WEAK DEFAULT 12 _ZNSt3__16vectorINS_4pair
430:   FUNC WEAK DEFAULT 12 _ZNKSt3__112regex_traitsI
431:   FUNC WEAK DEFAULT 12 _ZNSt3__114__split_buffer
432:   FUNC WEAK DEFAULT 12 _ZNSt3__116allocator_trai
433:   FUNC WEAK DEFAULT 12 _ZNSt3__117__compressed_p
434:   OBJECT WEAK DEFAULT 21 _ZTINSt3__16__loopIcEE
435:   OBJECT WEAK DEFAULT 21 _ZTVNSt3__112__match_char
436:   FUNC WEAK DEFAULT 12 _ZNSt3__111basic_regexIcN
437:   FUNC WEAK DEFAULT 12 _ZNSt3__122__compressed_p
438:   OBJECT WEAK DEFAULT 21 _ZTINSt3__110__back_refIc
439:   FUNC WEAK DEFAULT 12 _ZNKSt3__110__l_anchorIcE
440:   FUNC WEAK DEFAULT 12 _ZNKSt3__115__word_bounda
441:   FUNC WEAK DEFAULT 12 _ZNSt3__111basic_regexIcN
442:   FUNC WEAK DEFAULT 12 _ZNSt3__115__word_boundar
443:   FUNC WEAK DEFAULT 12 _ZNSt3__116allocator_trai
444:   FUNC WEAK DEFAULT 12 _ZNSt3__128__begin_marked
445:   FUNC WEAK DEFAULT 12 _ZNSt3__16__treeINS_12__v
446:   FUNC WEAK DEFAULT 12 _ZNSt3__17__stateIcEC2EOS
447:   FUNC WEAK DEFAULT 12 _ZNSt3__117_DeallocateCal
448:   FUNC WEAK DEFAULT 12 _ZNSt3__122__compressed_p
449:   OBJECT WEAK DEFAULT 9 _ZTSNSt3__120__shared_ptr
450:   FUNC WEAK DEFAULT 12 _ZTv0_n24_NSt3__119basic_
451:   FUNC WEAK DEFAULT 12 _ZNSt3__111basic_regexIcN
452:   FUNC WEAK DEFAULT 12 _ZNSt3__112basic_stringIc
453:   FUNC WEAK DEFAULT 12 _ZNSt3__113match_resultsI
454:   FUNC WEAK DEFAULT 12 _ZNKSt3__112regex_traitsI
455:   FUNC WEAK DEFAULT 12 _ZNKSt3__16__treeINS_12__
456:   FUNC WEAK DEFAULT 12 _ZNSt3__122__compressed_p
457:   FUNC WEAK DEFAULT 12 _ZNSt3__116allocator_trai
458:   FUNC WEAK DEFAULT 12 _ZNSt3__117__compressed_p
459:   FUNC WEAK DEFAULT 12 _ZNSt3__117__compressed_p
460:   FUNC WEAK DEFAULT 12 _ZTv0_n24_NSt3__119basic_
461:   FUNC WEAK DEFAULT 12 _ZNSt3__111char_traitsIcE
462:   FUNC WEAK DEFAULT 12 _ZNSt3__116allocator_trai
463:   FUNC WEAK DEFAULT 12 _ZNSt3__117__compressed_p
464:   FUNC WEAK DEFAULT 12 _ZNSt3__122__compressed_p
465:   FUNC WEAK DEFAULT 12 _ZNKSt3__16vectorIcNS_9al
466:   FUNC WEAK DEFAULT 12 _ZNSt3__114__split_buffer
467:   FUNC WEAK DEFAULT 12 _ZNSt3__115__word_boundar
468:   FUNC WEAK DEFAULT 12 _ZNSt3__128__begin_marked
469:   FUNC GLOBAL DEFAULT 12 _ZNK7android4Hash3rawEv
470:   FUNC WEAK DEFAULT 12 _ZNSt3__16__treeINS_12__v
471:   FUNC WEAK DEFAULT 12 _ZNSt3__16vectorINS_9sub_
472:   FUNC WEAK DEFAULT 12 _ZNSt3__16vectorIhNS_9all
473:   FUNC WEAK DEFAULT 12 _ZNKSt3__16__treeINS_12__
474:   FUNC WEAK DEFAULT 12 _ZNSt3__117__compressed_p
475:   FUNC WEAK DEFAULT 12 _ZNSt3__16vectorINS_12bas
476:   FUNC WEAK DEFAULT 12 _ZNKSt3__16vectorIhNS_9al
477:   FUNC WEAK DEFAULT 12 _ZNSt3__111basic_regexIcN
478:   FUNC WEAK DEFAULT 12 _ZNSt3__115basic_stringbu
479:   FUNC WEAK DEFAULT 12 _ZNSt3__117__compressed_p
480:   OBJECT WEAK DEFAULT 21 _ZTINSt3__113basic_filebu
481:   OBJECT WEAK DEFAULT 21 _ZTVNSt3__118__match_char
482:   FUNC WEAK DEFAULT 12 _ZNSt3__110unique_ptrI8_I
483:   FUNC WEAK DEFAULT 12 _ZNSt3__112regex_traitsIc
484:   FUNC WEAK DEFAULT 12 _ZNSt3__16vectorINS_9sub_
485:   OBJECT WEAK DEFAULT 21 _ZTTNSt3__114basic_ifstre
486:   FUNC WEAK DEFAULT 12 _ZNSt3__112basic_stringIc
487:   FUNC WEAK DEFAULT 12 _ZNSt3__113basic_filebufI
488:   FUNC WEAK DEFAULT 12 _ZNSt3__113match_resultsI
489:   FUNC WEAK DEFAULT 12 _ZNSt3__117__compressed_p
490:   FUNC WEAK DEFAULT 12 _ZNSt3__14pairIccEC2IccLb
491:   FUNC WEAK DEFAULT 12 _ZNSt3__19sub_matchIPKcEa
492:   FUNC WEAK DEFAULT 12 _ZNKSt3__112regex_traitsI
493:   FUNC WEAK DEFAULT 12 _ZNSt3__112__deque_baseIN
494:   FUNC WEAK DEFAULT 12 _ZNSt3__114__split_buffer
495:   FUNC WEAK DEFAULT 12 _ZNSt3__17__stateIcED2Ev
496:   OBJECT WEAK DEFAULT 21 _ZTINSt3__126__end_marked
497:   OBJECT WEAK DEFAULT 9 _ZTSNSt3__112__match_char
498:   OBJECT WEAK DEFAULT 21 _ZTVNSt3__16__nodeIcEE
499:   FUNC WEAK DEFAULT 12 _ZNSt3__116allocator_trai
500:   FUNC WEAK DEFAULT 12 _ZNSt3__19allocatorINS_12
501:   FUNC WEAK DEFAULT 12 _ZNSt3__112__deque_baseIN
502:   FUNC WEAK DEFAULT 12 _ZNSt3__112basic_stringIc
503:   FUNC WEAK DEFAULT 12 _ZNSt3__19__launderINS_4p
504:   FUNC WEAK DEFAULT 12 _ZNSt3__111__match_anyIcE
505:   FUNC WEAK DEFAULT 12 _ZNSt3__111basic_regexIcN
506:   FUNC WEAK DEFAULT 12 _ZNSt3__114__split_buffer
507:   FUNC WEAK DEFAULT 12 _ZNSt3__115basic_stringbu
508:   FUNC WEAK DEFAULT 12 _ZNSt3__115basic_stringbu
509:   FUNC WEAK DEFAULT 12 _ZNSt3__117__compressed_p
510:   FUNC WEAK DEFAULT 12 _ZNSt3__111basic_regexIcN
511:   FUNC WEAK DEFAULT 12 _ZNSt3__111char_traitsIcE
512:   FUNC WEAK DEFAULT 12 _ZNSt3__116allocator_trai
513:   FUNC WEAK DEFAULT 12 _ZNSt3__16__treeINS_12__v
514:   FUNC WEAK DEFAULT 12 _ZNSt3__18__searchIRNS_10
515:   FUNC WEAK DEFAULT 12 _ZNKSt3__16__loopIcE6__ex
516:   FUNC WEAK DEFAULT 12 _ZNSt3__16vectorINS_4pair
517:   OBJECT WEAK DEFAULT 21 _ZTINSt3__111__match_anyI
518:   OBJECT GLOBAL DEFAULT 26 _ZN7android4Hash10kEmptyH
519:   FUNC WEAK DEFAULT 12 _ZNSt3__127__tree_balance
520:   FUNC WEAK DEFAULT 12 _ZNSt3__114__split_buffer
521:   FUNC WEAK DEFAULT 12 _ZNSt3__116allocator_trai
522:   FUNC WEAK DEFAULT 12 _ZNSt3__117__compressed_p
523:   OBJECT WEAK DEFAULT 9 _ZTSNSt3__114default_dele
524:   OBJECT WEAK DEFAULT 9 _ZTSNSt3__117__repeat_one
525:   FUNC WEAK DEFAULT 12 _ZNSt3__111__match_anyIcE
526:   FUNC WEAK DEFAULT 12 _ZNSt3__117__compressed_p
527:   FUNC WEAK DEFAULT 12 _ZNSt3__117__compressed_p
528:   FUNC WEAK DEFAULT 12 _ZNSt3__16vectorINS_4pair
529:   FUNC WEAK DEFAULT 12 _ZN7android8HashFileD2Ev
530:   FUNC WEAK DEFAULT 12 _ZNSt3__117__compressed_p
531:   FUNC WEAK DEFAULT 12 _ZNSt3__120__shared_ptr_p
532:   FUNC WEAK DEFAULT 12 _ZNSt3__122__compressed_p
533:   OBJECT WEAK DEFAULT 21 _ZTINSt3__121__empty_non_
534:   OBJECT WEAK DEFAULT 21 _ZTVNSt3__110__r_anchorIc
535:   FUNC WEAK DEFAULT 12 _ZNSt3__111__lookaheadIcN
536:   FUNC WEAK DEFAULT 12 _ZNSt3__15dequeINS_7__sta
537:   OBJECT WEAK DEFAULT 9 _ZTSNSt3__114basic_ifstre
538:   FUNC WEAK DEFAULT 12 _ZNSt3__111basic_regexIcN
539:   FUNC WEAK DEFAULT 12 _ZNSt3__122__compressed_p
540:   FUNC WEAK DEFAULT 12 _ZNSt3__16__treeINS_12__v
541:   FUNC WEAK DEFAULT 12 _ZNKSt3__118__back_ref_co
542:   FUNC WEAK DEFAULT 12 _ZNSt3__111__alternateIcE
543:   FUNC WEAK DEFAULT 12 _ZNSt3__114__split_buffer
544:   FUNC WEAK DEFAULT 12 _ZNSt3__116allocator_trai
545:   OBJECT WEAK DEFAULT 21 _ZTVNSt3__117__repeat_one
546:   FUNC WEAK DEFAULT 12 _ZNSt3__116allocator_trai
547:   FUNC WEAK DEFAULT 12 _ZNSt3__119__tree_right_r
548:   FUNC WEAK DEFAULT 12 _ZNSt3__122__compressed_p
549:   OBJECT WEAK DEFAULT 21 _ZTCNSt3__118basic_string
550:   FUNC WEAK DEFAULT 12 _ZNSt3__112__tuple_leafIL
551:   FUNC WEAK DEFAULT 12 _ZNSt3__116__back_ref_ica
552:   FUNC WEAK DEFAULT 12 _ZNSt3__117__compressed_p
553:   FUNC WEAK DEFAULT 12 _ZNSt3__13mapINS_12basic_
554:   FUNC WEAK DEFAULT 12 _ZNSt3__120__shared_ptr_p
555:   FUNC WEAK DEFAULT 12 _ZNSt3__19allocatorIcE9co
556:   FUNC GLOBAL DEFAULT 12 _ZN7android4Hash10lookupH
557:   FUNC WEAK DEFAULT 12 _ZNKSt3__115basic_stringb
558:   FUNC WEAK DEFAULT 12 _ZNSt3__111__lookaheadIcN
559:   FUNC WEAK DEFAULT 12 _ZNSt3__16__treeINS_12__v
560:   FUNC WEAK DEFAULT 12 _ZNKSt3__111basic_regexIc
561:   FUNC WEAK DEFAULT 12 _ZNSt3__111basic_regexIcN
562:   FUNC WEAK DEFAULT 12 _ZNSt3__113basic_filebufI
563:   FUNC WEAK DEFAULT 12 _ZNSt3__122__compressed_p
564:   FUNC WEAK DEFAULT 12 _ZNSt3__122__compressed_p
565:   FUNC WEAK DEFAULT 12 _ZNSt3__16__treeINS_12__v
566:   FUNC GLOBAL DEFAULT 12 _ZN7android4HashC1ERKNSt3
567:   FUNC WEAK DEFAULT 12 _ZNSt3__111__alternateIcE
568:   FUNC WEAK DEFAULT 12 _ZNSt3__112basic_stringIc
569:   FUNC WEAK DEFAULT 12 _ZNSt3__16__treeINS_12__v
570:   FUNC WEAK DEFAULT 12 _ZNSt3__16__treeINS_12__v
571:   FUNC WEAK DEFAULT 12 _ZNSt3__16__treeINS_12__v
572:   FUNC WEAK DEFAULT 12 _ZNSt3__16vectorINS_4pair
573:   FUNC WEAK DEFAULT 12 _ZNKSt3__117__repeat_one_
574:   FUNC WEAK DEFAULT 12 _ZNSt3__111basic_regexIcN
575:   FUNC WEAK DEFAULT 12 _ZNSt3__111basic_regexIcN
576:   FUNC WEAK DEFAULT 12 _ZNSt3__114__split_buffer
577:   FUNC WEAK DEFAULT 12 _ZNSt3__114__split_buffer
578:   FUNC WEAK DEFAULT 12 _ZNSt3__16__treeINS_12__v
579:   FUNC WEAK DEFAULT 12 _ZNSt3__112regex_traitsIc
580:   FUNC WEAK DEFAULT 12 _ZNSt3__113match_resultsI
581:   FUNC WEAK DEFAULT 12 _ZNSt3__114__split_buffer
582:   FUNC WEAK DEFAULT 12 _ZNSt3__114__split_buffer
583:   FUNC WEAK DEFAULT 12 _ZNSt3__116__back_ref_ica
584:   FUNC WEAK DEFAULT 12 _ZNSt3__16__treeINS_12__v
585:   FUNC WEAK DEFAULT 12 _ZNSt3__19__launderIKNS_4
586:   FUNC WEAK DEFAULT 12 _ZNSt3__16vectorINS_4pair
587:   FUNC WEAK DEFAULT 12 _ZNSt3__19allocatorINS_4p
588:   FUNC WEAK DEFAULT 12 _ZNSt3__113__vector_baseI
589:   FUNC WEAK DEFAULT 12 _ZNSt3__117__compressed_p
590:   FUNC WEAK DEFAULT 12 _ZNSt3__122__compressed_p
591:   OBJECT WEAK DEFAULT 21 _ZTINSt3__116__owns_one_s
592:   OBJECT WEAK DEFAULT 9 _ZTSNSt3__110__back_refIc
593:   OBJECT WEAK DEFAULT 9 _ZTSNSt3__126__end_marked
594:   FUNC WEAK DEFAULT 12 _ZNKSt3__113__empty_state
595:   FUNC WEAK DEFAULT 12 _ZNKSt3__116__back_ref_ic
596:   FUNC WEAK DEFAULT 12 _ZNSt3__16vectorINS_9sub_
597:   OBJECT WEAK DEFAULT 9 _ZTSNSt3__118__match_char
598:   OBJECT WEAK DEFAULT 9 _ZTSNSt3__16__loopIcEE
599:   FUNC WEAK DEFAULT 12 _ZNSt3__113basic_filebufI
600:   FUNC WEAK DEFAULT 12 _ZNSt3__16__treeINS_12__v
601:   FUNC WEAK DEFAULT 12 _ZNSt3__19allocatorINS_9s
602:   FUNC WEAK DEFAULT 12 _ZNKSt3__110__r_anchorIcE
603:   FUNC WEAK DEFAULT 12 _ZNSt3__116allocator_trai
604:   FUNC WEAK DEFAULT 12 _ZNSt3__122__compressed_p
605:   FUNC WEAK DEFAULT 12 _ZNSt3__116allocator_trai
606:   FUNC WEAK DEFAULT 12 _ZNSt3__116allocator_trai
607:   OBJECT WEAK DEFAULT 21 _ZTVNSt3__111__end_stateI
608:   FUNC WEAK DEFAULT 12 _ZNSt3__111basic_regexIcN
609:   FUNC WEAK DEFAULT 12 _ZNSt3__113__vector_baseI
610:   FUNC WEAK DEFAULT 12 _ZNSt3__116allocator_trai
611:   OBJECT WEAK DEFAULT 9 _ZTSNSt3__120__bracket_ex
612:   OBJECT WEAK DEFAULT 21 _ZTVNSt3__118__back_ref_c
613:   FUNC WEAK DEFAULT 12 _ZNSt3__110shared_ptrINS_
614:   FUNC WEAK DEFAULT 12 _ZNSt3__112basic_stringIc
615:   FUNC WEAK DEFAULT 12 _ZNSt3__16vectorINS_9sub_
616:   OBJECT WEAK DEFAULT 21 _ZTVNSt3__120__bracket_ex
617:   FUNC WEAK DEFAULT 12 _ZNKSt3__16__treeINS_12__
618:   FUNC WEAK DEFAULT 12 _ZNKSt3__16vectorINS_4pai
619:   FUNC WEAK DEFAULT 12 _ZNSt3__112basic_stringIc
620:   FUNC WEAK DEFAULT 12 _ZNSt3__116allocator_trai
621:   FUNC WEAK DEFAULT 12 _ZNSt3__117__compressed_p
622:   FUNC WEAK DEFAULT 12 _ZNSt3__122__tree_key_val
623:   FUNC WEAK DEFAULT 12 _ZNSt3__14pairINS_12basic
624:   FUNC WEAK DEFAULT 12 _ZNSt3__15dequeINS_7__sta
625:   FUNC WEAK DEFAULT 12 _ZNSt3__111basic_regexIcN
626:   FUNC WEAK DEFAULT 12 _ZNSt3__122__compressed_p
627:   FUNC GLOBAL DEFAULT 12 _ZN7android4Hash9clearHas
628:   FUNC WEAK DEFAULT 12 _ZNSt3__111basic_regexIcN
629:   FUNC WEAK DEFAULT 12 _ZNSt3__19allocatorIhE9co
630:   OBJECT WEAK DEFAULT 9 _ZTSNSt3__111__end_stateI
631:   OBJECT WEAK DEFAULT 21 _ZTINSt3__115__has_one_st
632:   FUNC WEAK DEFAULT 12 _ZNSt3__112regex_traitsIc
633:   FUNC WEAK DEFAULT 12 _ZNSt3__114__split_buffer
634:   FUNC WEAK DEFAULT 12 _ZNSt3__116allocator_trai
635:   FUNC WEAK DEFAULT 12 _ZNSt3__13mapINS_12basic_
636:   FUNC WEAK DEFAULT 12 _ZNSt3__14pairIKNS_12basi
637:   FUNC WEAK DEFAULT 12 _ZNSt3__15dequeINS_7__sta
638:   OBJECT WEAK DEFAULT 9 _ZTSNSt3__120__match_char
639:   FUNC WEAK DEFAULT 12 _ZNSt3__116allocator_trai
640:   FUNC WEAK DEFAULT 12 _ZNSt3__116allocator_trai
641:   FUNC WEAK DEFAULT 12 _ZNSt3__16vectorIhNS_9all
642:   FUNC WEAK DEFAULT 12 _ZNSt3__19allocatorINS_12
643:   OBJECT WEAK DEFAULT 21 _ZTCNSt3__114basic_ifstre
644:   FUNC WEAK DEFAULT 12 _ZNSt3__115basic_stringbu
645:   OBJECT WEAK DEFAULT 9 _ZTSNSt3__123__match_any_
646:   FUNC WEAK DEFAULT 12 _ZNKSt3__112regex_traitsI
647:   FUNC WEAK DEFAULT 12 _ZNSt3__116allocator_trai
648:   FUNC WEAK DEFAULT 12 _ZNSt3__117_DeallocateCal
649:   FUNC WEAK DEFAULT 12 _ZNSt3__15tupleIJRKNS_12b
650:   OBJECT WEAK DEFAULT 9 _ZTSNSt3__121__empty_non_
651:   FUNC WEAK DEFAULT 12 _ZNSt3__117__compressed_p
652:   FUNC WEAK DEFAULT 12 _ZNSt3__15dequeINS_7__sta
653:   FUNC WEAK DEFAULT 12 _ZNSt3__17__stateIcEC2ERK
654:   FUNC WEAK DEFAULT 12 _ZNSt3__1lsINS_11char_tra
655:   OBJECT WEAK DEFAULT 21 _ZTVNSt3__110__l_anchorIc
656:   FUNC WEAK DEFAULT 12 _ZNSt3__110unique_ptrIPNS
657:   FUNC WEAK DEFAULT 12 _ZNSt3__111basic_regexIcN
658:   FUNC WEAK DEFAULT 12 _ZNSt3__113__vector_baseI
659:   FUNC WEAK DEFAULT 12 _ZNSt3__117__compressed_p
660:   OBJECT WEAK DEFAULT 21 _ZTCNSt3__119basic_ostrin
661:   OBJECT WEAK DEFAULT 26 _ZGVZN7android8HashFile5p
662:   FUNC WEAK DEFAULT 12 _ZNKSt3__16__treeINS_12__
663:   FUNC WEAK DEFAULT 12 _ZNSt3__111basic_regexIcN
664:   FUNC WEAK DEFAULT 12 _ZNSt3__111basic_regexIcN
665:   FUNC WEAK DEFAULT 12 _ZNSt3__116allocator_trai
666:   FUNC WEAK DEFAULT 12 _ZNSt3__122__compressed_p
667:   FUNC WEAK DEFAULT 12 _ZNSt3__16vectorINS_12bas
668:   OBJECT WEAK DEFAULT 9 _ZTSNSt3__115__word_bound
669:   FUNC WEAK DEFAULT 12 _ZNKSt3__112basic_stringI
670:   FUNC WEAK DEFAULT 12 _ZNSt3__113__vector_baseI
671:   FUNC WEAK DEFAULT 12 _ZNSt3__113basic_filebufI
672:   FUNC WEAK DEFAULT 12 _ZNSt3__116allocator_trai
673:   FUNC WEAK DEFAULT 12 _ZNSt3__122__compressed_p
674:   FUNC WEAK DEFAULT 12 _ZNSt3__122__compressed_p
675:   FUNC WEAK DEFAULT 12 _ZThn16_NSt3__118basic_st
676:   FUNC WEAK DEFAULT 12 _ZNSt3__110shared_ptrINS_
677:   FUNC WEAK DEFAULT 12 _ZNSt3__112basic_stringIc
678:   FUNC WEAK DEFAULT 12 _ZNSt3__113basic_filebufI
679:   FUNC WEAK DEFAULT 12 _ZTv0_n24_NSt3__114basic_
680:   FUNC WEAK DEFAULT 12 _ZNSt3__112basic_stringIc
681:   FUNC WEAK DEFAULT 12 _ZNSt3__113basic_filebufI
682:   FUNC WEAK DEFAULT 12 _ZNSt3__116allocator_trai
683:   FUNC WEAK DEFAULT 12 _ZNSt3__116allocator_trai
684:   FUNC WEAK DEFAULT 12 _ZNSt3__16vectorINS_9sub_
685:   FUNC WEAK DEFAULT 12 _ZNSt3__19allocatorIPNS_7
686:   OBJECT WEAK DEFAULT 21 _ZTTNSt3__118basic_string
687:   OBJECT WEAK DEFAULT 21 _ZTVNSt3__115__has_one_st
688:   FUNC WEAK DEFAULT 12 _ZNKSt3__120__match_char_
689:   FUNC WEAK DEFAULT 12 _ZNSt3__16vectorINS_12bas
690:   FUNC WEAK DEFAULT 12 _ZThn16_NSt3__118basic_st
691:   FUNC WEAK DEFAULT 12 _ZNSt3__116allocator_trai
692:   FUNC WEAK DEFAULT 12 _ZNSt3__122__compressed_p
693:   FUNC WEAK DEFAULT 12 _ZNSt3__16__treeINS_12__v
694:   FUNC WEAK DEFAULT 12 _ZTv0_n24_NSt3__114basic_
695:   FUNC WEAK DEFAULT 12 _ZNSt3__114__split_buffer
696:   FUNC WEAK DEFAULT 12 _ZNSt3__114__split_buffer
697:   FUNC WEAK DEFAULT 12 _ZNSt3__117__compressed_p
698:   FUNC WEAK DEFAULT 12 _ZNSt3__16__treeINS_12__v
699:   FUNC WEAK DEFAULT 12 _ZNSt3__16vectorINS_9sub_
700:   OBJECT WEAK DEFAULT 21 _ZTVNSt3__126__end_marked
701:   FUNC WEAK DEFAULT 12 _ZNKSt3__111basic_regexIc
702:   FUNC WEAK DEFAULT 12 _ZNSt3__112regex_traitsIc
703:   FUNC WEAK DEFAULT 12 _ZNSt3__14pairIPKcS2_EC2I
704:   FUNC WEAK DEFAULT 12 _ZNSt3__16vectorINS_4pair
705:   FUNC WEAK DEFAULT 12 _ZNSt3__16vectorINS_7__st
706:   OBJECT WEAK DEFAULT 21 _ZTVNSt3__111__lookaheadI
707:   FUNC WEAK DEFAULT 12 _ZNKSt3__112regex_traitsI
708:   FUNC WEAK DEFAULT 12 _ZNSt3__111basic_regexIcN
709:   FUNC WEAK DEFAULT 12 _ZNSt3__112__deque_baseIN
710:   FUNC WEAK DEFAULT 12 _ZNSt3__16vectorINS_12bas
711:   OBJECT WEAK DEFAULT 9 _ZTSNSt3__117__owns_two_s
712:   FUNC WEAK DEFAULT 12 _ZNKSt3__111__alternateIc
713:   FUNC WEAK DEFAULT 12 _ZNKSt3__111__match_anyIc
714:   FUNC WEAK DEFAULT 12 _ZNSt3__110__l_anchorIcED
715:   FUNC WEAK DEFAULT 12 _ZNSt3__111basic_regexIcN
716:   FUNC WEAK DEFAULT 12 _ZNSt3__116allocator_trai
717:   FUNC WEAK DEFAULT 12 _ZNSt3__122__compressed_p
718:   FUNC WEAK DEFAULT 12 _ZNKSt3__112regex_traitsI
719:   FUNC WEAK DEFAULT 12 _ZNSt3__110unique_ptrINS_
720:   OBJECT WEAK DEFAULT 9 _ZTSNSt3__113basic_filebu
721:   OBJECT WEAK DEFAULT 21 _ZTVNSt3__120__match_char
722:   FUNC WEAK DEFAULT 12 _ZNSt3__111basic_regexIcN
723:   FUNC WEAK DEFAULT 12 _ZNSt3__111char_traitsIcE
724:   FUNC WEAK DEFAULT 12 _ZNSt3__113basic_filebufI
725:   FUNC WEAK DEFAULT 12 _ZNSt3__17__stateIcEaSERK
726:   FUNC WEAK DEFAULT 12 _ZNSt3__19allocatorINS_4p
727:   FUNC WEAK DEFAULT 12 _ZNSt3__111basic_regexIcN
728:   FUNC WEAK DEFAULT 12 _ZNSt3__111char_traitsIcE
729:   FUNC WEAK DEFAULT 12 _ZNSt3__122__compressed_p
730:   FUNC WEAK DEFAULT 12 _ZNSt3__111char_traitsIcE
731:   FUNC WEAK DEFAULT 12 _ZNSt3__113match_resultsI
732:   FUNC WEAK DEFAULT 12 _ZNSt3__122__compressed_p
733:   FUNC WEAK DEFAULT 12 _ZNSt3__116allocator_trai
734:   OBJECT WEAK DEFAULT 9 _ZTSNSt3__118__back_ref_c
735:   FUNC GLOBAL DEFAULT 12 _ZNK7android4Hash9hexStri
736:   FUNC WEAK DEFAULT 12 _ZNSt3__110__l_anchorIcED
737:   FUNC WEAK DEFAULT 12 _ZNSt3__122__compressed_p
738:   FUNC WEAK DEFAULT 12 _ZNSt3__122__compressed_p
739:   FUNC WEAK DEFAULT 12 _ZNKSt3__111__alternateIc
740:   FUNC WEAK DEFAULT 12 _ZNSt3__111__end_stateIcE
741:   FUNC WEAK DEFAULT 12 _ZNSt3__116allocator_trai
742:   FUNC WEAK DEFAULT 12 _ZNSt3__16vectorINS_12bas
743:   OBJECT WEAK DEFAULT 21 _ZTINSt3__111__end_stateI
744:   FUNC GLOBAL DEFAULT 12 _ZNK7android4Hash7getPath
745:   FUNC WEAK DEFAULT 12 _ZNKSt3__111basic_regexIc
746:   FUNC WEAK DEFAULT 12 _ZNSt3__122__compressed_p
747:   FUNC WEAK DEFAULT 12 _ZNSt3__122__compressed_p
748:   FUNC WEAK DEFAULT 12 _ZNSt3__14pairIKNS_12basi
749:   FUNC WEAK DEFAULT 12 _ZNSt3__114__split_buffer
750:   FUNC WEAK DEFAULT 12 _ZNSt3__16vectorIhNS_9all
751:   FUNC WEAK DEFAULT 12 _ZN7android4HashD2Ev
752:   FUNC WEAK DEFAULT 12 _ZNSt3__111basic_regexIcN
753:   FUNC WEAK DEFAULT 12 _ZNSt3__116allocator_trai
754:   FUNC WEAK DEFAULT 12 _ZNSt3__120__shared_ptr_p
755:   FUNC WEAK DEFAULT 12 _ZNKSt3__110__back_refIcE
756:   FUNC WEAK DEFAULT 12 _ZNSt3__118basic_stringst
757:   FUNC WEAK DEFAULT 12 _ZNSt3__14pairINS_11__wra
758:   FUNC WEAK DEFAULT 12 _ZNKSt3__128__begin_marke
759:   FUNC WEAK DEFAULT 12 _ZNSt3__111__end_stateIcE
760:   FUNC WEAK DEFAULT 12 _ZNSt3__122__compressed_p
761:   OBJECT WEAK DEFAULT 21 _ZTVNSt3__118basic_string
762:   FUNC WEAK DEFAULT 12 _ZNKSt3__16vectorINS_4pai
763:   FUNC WEAK DEFAULT 12 _ZNSt3__117__compressed_p
764:   FUNC WEAK DEFAULT 12 _ZNSt3__122__compressed_p
765:   FUNC WEAK DEFAULT 12 _ZNSt3__16vectorINS_9sub_
766:   FUNC WEAK DEFAULT 12 _ZNSt3__16vectorIhNS_9all
767:   OBJECT WEAK DEFAULT 21 _ZTINSt3__128__begin_mark
768:   FUNC WEAK DEFAULT 12 _ZNSt3__111basic_regexIcN
769:   FUNC WEAK DEFAULT 12 _ZNSt3__116allocator_trai
770:   FUNC WEAK DEFAULT 12 _ZNSt3__118__back_ref_col
771:   FUNC WEAK DEFAULT 12 _ZNSt3__118basic_stringst
772:   FUNC WEAK DEFAULT 12 _ZNSt3__16__treeINS_12__v
773:   FUNC WEAK DEFAULT 12 _ZNSt3__19allocatorINS_7_
774:   OBJECT WEAK DEFAULT 21 _ZTINSt3__111__lookaheadI
775:   FUNC WEAK DEFAULT 12 _ZN7android4HashC2EOS0_
776:   FUNC WEAK DEFAULT 12 _ZN7android8HashFile12rea
777:   FUNC WEAK DEFAULT 12 _ZNSt3__116__owns_one_sta
778:   FUNC WEAK DEFAULT 12 _ZNSt3__19__launderINS_4p
779:   FUNC WEAK DEFAULT 12 _ZNSt3__116allocator_trai
780:   FUNC WEAK DEFAULT 12 _ZNSt3__116allocator_trai
781:   FUNC WEAK DEFAULT 12 _ZNSt3__117__compressed_p
782:   FUNC WEAK DEFAULT 12 _ZNSt3__117__compressed_p
783:   FUNC WEAK DEFAULT 12 _ZNSt3__120__shared_ptr_p
784:   FUNC WEAK DEFAULT 12 _ZNSt3__13mapINS_12basic_
785:   FUNC WEAK DEFAULT 12 _ZNSt3__111basic_regexIcN
786:   FUNC WEAK DEFAULT 12 _ZNSt3__114__split_buffer
787:   FUNC WEAK DEFAULT 12 _ZNSt3__118basic_stringst
788:   FUNC WEAK DEFAULT 12 _ZNSt3__1lsINS_11char_tra
789:   FUNC WEAK DEFAULT 12 _ZTv0_n24_NSt3__118basic_
790:   FUNC WEAK DEFAULT 12 _ZNKSt3__16__loopIcE12__e
791:   FUNC WEAK DEFAULT 12 _ZNKSt3__16vectorINS_4pai
792:   FUNC WEAK DEFAULT 12 _ZNSt3__116allocator_trai
793:   OBJECT WEAK DEFAULT 21 _ZTVNSt3__113basic_filebu
794:   OBJECT WEAK DEFAULT 21 _ZTVNSt3__117__owns_two_s
795:   FUNC WEAK DEFAULT 12 _ZNSt3__113basic_filebufI
796:   FUNC WEAK DEFAULT 12 _ZNSt3__116allocator_trai
797:   FUNC WEAK DEFAULT 12 _ZNSt3__116allocator_trai
798:   FUNC WEAK DEFAULT 12 _ZNSt3__16vectorINS_9sub_
799:   OBJECT WEAK DEFAULT 21 _ZTVNSt3__120__shared_ptr
800:   FUNC WEAK DEFAULT 12 _ZNKSt3__16__treeINS_12__
801:   FUNC WEAK DEFAULT 12 _ZNSt3__118__back_ref_col
802:   FUNC WEAK DEFAULT 12 _ZNSt3__16__treeINS_12__v
803:   FUNC WEAK DEFAULT 12 _ZTv0_n24_NSt3__118basic_
804:   FUNC WEAK DEFAULT 12 _ZNSt3__110unique_ptrINS_
805:   FUNC WEAK DEFAULT 12 _ZNSt3__110unique_ptrINS_
806:   FUNC WEAK DEFAULT 12 _ZNSt3__113basic_filebufI
807:   FUNC WEAK DEFAULT 12 _ZNSt3__113match_resultsI
808:   FUNC WEAK DEFAULT 12 _ZNSt3__116__owns_one_sta
809:   FUNC WEAK DEFAULT 12 _ZNSt3__117__compressed_p
810:   FUNC WEAK DEFAULT 12 _ZNSt3__14pairIPKcS2_EC2I
811:   FUNC WEAK DEFAULT 12 _ZNSt3__111basic_regexIcN
812:   FUNC WEAK DEFAULT 12 _ZNSt3__111basic_regexIcN
813:   FUNC WEAK DEFAULT 12 _ZNSt3__111basic_regexIcN
814:   FUNC WEAK DEFAULT 12 _ZNSt3__112__match_charIc
815:   FUNC WEAK DEFAULT 12 _ZNSt3__117__compressed_p
816:   FUNC WEAK DEFAULT 12 _ZNSt3__117__repeat_one_l
817:   FUNC WEAK DEFAULT 12 _ZNSt3__15dequeINS_7__sta
818:   OBJECT WEAK DEFAULT 21 _ZTVNSt3__16__loopIcEE
819:   FUNC WEAK DEFAULT 12 _ZNSt3__116allocator_trai
820:   FUNC WEAK DEFAULT 12 _ZNSt3__116allocator_trai
821:   FUNC WEAK DEFAULT 12 _ZNSt3__117__compressed_p
822:   FUNC WEAK DEFAULT 12 _ZNSt3__119basic_ostrings
823:   OBJECT WEAK DEFAULT 9 _ZTSNSt3__111__lookaheadI
824:   FUNC WEAK DEFAULT 12 _ZNSt3__114__split_buffer
825:   FUNC WEAK DEFAULT 12 _ZNSt3__122__compressed_p
826:   FUNC WEAK DEFAULT 12 _ZNSt3__122__compressed_p
827:   FUNC WEAK DEFAULT 12 _ZNSt3__16vectorINS_9sub_
828:   FUNC WEAK DEFAULT 12 _ZNSt3__111basic_regexIcN
829:   FUNC WEAK DEFAULT 12 _ZNSt3__111basic_regexIcN
830:   FUNC WEAK DEFAULT 12 _ZNSt3__116allocator_trai
831:   FUNC WEAK DEFAULT 12 _ZNSt3__116allocator_trai
832:   FUNC WEAK DEFAULT 12 _ZNSt3__119basic_ostrings
833:   FUNC WEAK DEFAULT 12 _ZNSt3__122__compressed_p
834:   FUNC WEAK DEFAULT 12 _ZNSt3__13mapINS_12basic_
835:   FUNC WEAK DEFAULT 12 _ZNSt3__16vectorINS_4pair
