 0x000000000000000e (SONAME)             Library soname: [libnativeloader.so]
  
Symbol   contains 29 entries:
Num:   Type Bind Vis Ndx Name
0:   NOTYPE LOCAL DEFAULT UND
1:   NOTYPE WEAK DEFAULT UND __gmon_start__
2:   NOTYPE WEAK DEFAULT UND _ITM_deregisterTMCloneTab
3:   NOTYPE WEAK DEFAULT UND _ITM_registerTMCloneTable
4:   FUNC WEAK DEFAULT UND __cxa_finalize@GLIBC_2.2.5 (2)
5:   NOTYPE WEAK DEFAULT UND _Jv_RegisterClasses
6:   FUNC GLOBAL DEFAULT UND NativeBridgeGetError@LIBNATIVEBRIDGE_1 (3)
7:   FUNC GLOBAL DEFAULT UND NativeBridgeIsSupported@LIBNATIVEBRIDGE_1 (3)
8:   FUNC GLOBAL DEFAULT UND NativeBridgeLoadLibrary@LIBNATIVEBRIDGE_1 (3)
9:   FUNC GLOBAL DEFAULT UND NativeBridgeUnloadLibrary@LIBNATIVEBRIDGE_1 (3)
10:   FUNC GLOBAL DEFAULT UND _ZN7android4base5SplitERK
11:   FUNC GLOBAL DEFAULT UND _ZNSt3__112basic_stringIc
12:   FUNC GLOBAL DEFAULT UND _ZNSt3__112basic_stringIc
13:   FUNC GLOBAL DEFAULT UND _ZNSt3__112basic_stringIc
14:   FUNC GLOBAL DEFAULT UND _ZdlPv
15:   FUNC GLOBAL DEFAULT UND __stack_chk_fail@GLIBC_2.4 (4)
16:   FUNC GLOBAL DEFAULT UND dlclose@GLIBC_2.2.5 (5)
17:   FUNC GLOBAL DEFAULT UND dlerror@GLIBC_2.2.5 (5)
18:   FUNC GLOBAL DEFAULT UND dlopen@GLIBC_2.2.5 (5)
19:   FUNC GLOBAL DEFAULT UND free@GLIBC_2.2.5 (2)
20:   FUNC GLOBAL DEFAULT UND strdup@GLIBC_2.2.5 (2)
21:   FUNC GLOBAL DEFAULT 13 _init
22:   FUNC GLOBAL DEFAULT 14 _fini
23:   FUNC GLOBAL DEFAULT 12 NativeLoaderFreeErrorMess
24:   FUNC GLOBAL DEFAULT 12 ResetNativeLoader
25:   FUNC GLOBAL DEFAULT 12 CloseNativeLibrary
26:   FUNC GLOBAL DEFAULT 12 CreateClassLoaderNamespac
27:   FUNC GLOBAL DEFAULT 12 InitializeNativeLoader
28:   FUNC GLOBAL DEFAULT 12 OpenNativeLibrary
