 0x000000000000000e (SONAME)             Library soname: [liblbs_core.so]
  
Symbol   contains 315 entries:
Num:   Type Bind Vis Ndx Name
0:   NOTYPE LOCAL DEFAULT UND
1:   FUNC GLOBAL DEFAULT UND __cxa_finalize@LIBC (2)
2:   FUNC GLOBAL DEFAULT UND _ZN8loc_core10LocApiBase1
3:   FUNC GLOBAL DEFAULT UND _ZN8loc_core14LocAdapterB
4:   FUNC GLOBAL DEFAULT UND _ZN8loc_core14LocAdapterB
5:   FUNC GLOBAL DEFAULT UND _ZN8loc_core14LocAdapterB
6:   FUNC GLOBAL DEFAULT UND _ZN8loc_core14LocAdapterB
7:   FUNC GLOBAL DEFAULT UND _ZN8loc_core14LocAdapterB
8:   FUNC GLOBAL DEFAULT UND _ZN8loc_core14LocAdapterB
9:   FUNC GLOBAL DEFAULT UND _ZN8loc_core14LocAdapterB
10:   FUNC GLOBAL DEFAULT UND _ZN8loc_core14LocAdapterB
11:   FUNC GLOBAL DEFAULT UND _ZN8loc_core14LocAdapterB
12:   FUNC GLOBAL DEFAULT UND _ZN8loc_core14LocAdapterB
13:   FUNC GLOBAL DEFAULT UND _ZN8loc_core14LocAdapterB
14:   FUNC GLOBAL DEFAULT UND _ZN8loc_core14LocAdapterB
15:   FUNC GLOBAL DEFAULT UND _ZN8loc_core14LocAdapterB
16:   FUNC GLOBAL DEFAULT UND _ZN8loc_core14LocAdapterB
17:   FUNC GLOBAL DEFAULT UND _ZN8loc_core14LocAdapterB
18:   FUNC GLOBAL DEFAULT UND _ZN8loc_core14LocAdapterB
19:   FUNC GLOBAL DEFAULT UND _ZN8loc_core14LocAdapterB
20:   FUNC GLOBAL DEFAULT UND _ZN8loc_core14LocAdapterB
21:   FUNC GLOBAL DEFAULT UND _ZN8loc_core14LocAdapterB
22:   FUNC GLOBAL DEFAULT UND _ZN8loc_core14LocAdapterB
23:   FUNC GLOBAL DEFAULT UND _ZN8loc_core14LocAdapterB
24:   FUNC GLOBAL DEFAULT UND _ZN8loc_core14LocAdapterB
25:   FUNC GLOBAL DEFAULT UND _ZN8loc_core14LocAdapterB
26:   FUNC GLOBAL DEFAULT UND _ZN8loc_core14LocAdapterB
27:   FUNC GLOBAL DEFAULT UND _ZN8loc_core14LocAdapterB
28:   FUNC GLOBAL DEFAULT UND _ZN8loc_core14LocAdapterB
29:   FUNC GLOBAL DEFAULT UND _ZN8loc_core14LocAdapterB
30:   FUNC GLOBAL DEFAULT UND _ZN8loc_core14LocAdapterB
31:   FUNC GLOBAL DEFAULT UND _ZN8loc_core14LocAdapterB
32:   FUNC GLOBAL DEFAULT UND _ZN8loc_core14LocAdapterB
33:   FUNC GLOBAL DEFAULT UND _ZN8loc_core14LocAdapterB
34:   FUNC GLOBAL DEFAULT UND _ZN8loc_core14LocAdapterB
35:   FUNC GLOBAL DEFAULT UND _ZN8loc_core14LocAdapterB
36:   FUNC GLOBAL DEFAULT UND _ZN8loc_core14LocAdapterB
37:   FUNC GLOBAL DEFAULT UND _ZN8loc_core14LocAdapterB
38:   FUNC GLOBAL DEFAULT UND _ZN8loc_core14LocAdapterB
39:   FUNC GLOBAL DEFAULT UND _ZN8loc_core14LocAdapterB
40:   OBJECT GLOBAL DEFAULT UND _ZTVN8loc_core14LocAdapte
41:   FUNC GLOBAL DEFAULT UND _ZdlPv
42:   FUNC GLOBAL DEFAULT UND _Znwm
43:   FUNC GLOBAL DEFAULT UND __android_log_print@LIBLOG (3)
44:   OBJECT GLOBAL DEFAULT UND loc_logger
45:   OBJECT GLOBAL DEFAULT UND ENTRY_TAG
46:   OBJECT GLOBAL DEFAULT UND EXIT_TAG
47:   OBJECT GLOBAL DEFAULT UND LOC_PATH_IZAT_CONF
48:   OBJECT GLOBAL DEFAULT UND VOID_RET
49:   OBJECT GLOBAL DEFAULT UND _ZN8loc_core11ContextBase
50:   FUNC GLOBAL DEFAULT UND _ZNK7MsgTask7sendMsgEPK6L
51:   FUNC GLOBAL DEFAULT UND __errno@LIBC (2)
52:   FUNC GLOBAL DEFAULT UND __open_2@LIBC (2)
53:   FUNC GLOBAL DEFAULT UND __stack_chk_fail@LIBC (2)
54:   FUNC GLOBAL DEFAULT UND __strlcpy_chk@LIBC (2)
55:   FUNC GLOBAL DEFAULT UND __strlen_chk@LIBC (2)
56:   FUNC GLOBAL DEFAULT UND abort@LIBC (2)
57:   FUNC GLOBAL DEFAULT UND access@LIBC (2)
58:   FUNC GLOBAL DEFAULT UND close@LIBC (2)
59:   FUNC GLOBAL DEFAULT UND dlopen@LIBC (4)
60:   FUNC GLOBAL DEFAULT UND dlsym@LIBC (4)
61:   FUNC GLOBAL DEFAULT UND free@LIBC (2)
62:   FUNC GLOBAL DEFAULT UND get_system_info
63:   FUNC GLOBAL DEFAULT UND get_timestamp
64:   FUNC GLOBAL DEFAULT UND loc_read_conf
65:   FUNC GLOBAL DEFAULT UND memcmp@LIBC (2)
66:   FUNC GLOBAL DEFAULT UND memset@LIBC (2)
67:   FUNC GLOBAL DEFAULT UND pm_client_connect
68:   FUNC GLOBAL DEFAULT UND pm_client_disconnect
69:   FUNC GLOBAL DEFAULT UND pm_client_event_acknowled
70:   FUNC GLOBAL DEFAULT UND pm_client_register
71:   FUNC GLOBAL DEFAULT UND servreg_alloc_DLHandle
72:   FUNC GLOBAL DEFAULT UND servreg_free_DLHandle
73:   FUNC GLOBAL DEFAULT UND servreg_get_data_for_noti
74:   FUNC GLOBAL DEFAULT UND servreg_get_domainlist
75:   FUNC GLOBAL DEFAULT UND servreg_get_numentries
76:   FUNC GLOBAL DEFAULT UND strerror@LIBC (2)
77:   FUNC GLOBAL DEFAULT UND strncmp@LIBC (2)
78:   FUNC GLOBAL DEFAULT UND strtok_r@LIBC (2)
79:   FUNC GLOBAL DEFAULT UND _ZN9izat_core10IzatApiV02
80:   OBJECT GLOBAL DEFAULT UND _ZN8loc_core10LocApiBase8
81:   FUNC GLOBAL DEFAULT UND _ZN9LocApiV0211addGeofenc
82:   FUNC GLOBAL DEFAULT UND _ZN9LocApiV0211setXtraDat
83:   FUNC GLOBAL DEFAULT UND _ZN9LocApiV0212setBatchSi
84:   FUNC GLOBAL DEFAULT UND _ZN9LocApiV0212stopBatchi
85:   FUNC GLOBAL DEFAULT UND _ZN9LocApiV0213atlOpenSta
86:   FUNC GLOBAL DEFAULT UND _ZN9LocApiV0213convertLpp
87:   FUNC GLOBAL DEFAULT UND _ZN9LocApiV0213convertLpp
88:   FUNC GLOBAL DEFAULT UND _ZN9LocApiV0213getWwanZpp
89:   FUNC GLOBAL DEFAULT UND _ZN9LocApiV0213pauseGeofe
90:   FUNC GLOBAL DEFAULT UND _ZN9LocApiV0213setServerS
91:   FUNC GLOBAL DEFAULT UND _ZN9LocApiV0213setServerS
92:   FUNC GLOBAL DEFAULT UND _ZN9LocApiV0213startBatch
93:   FUNC GLOBAL DEFAULT UND _ZN9LocApiV0214addToCallQ
94:   FUNC GLOBAL DEFAULT UND _ZN9LocApiV0214atlCloseSt
95:   FUNC GLOBAL DEFAULT UND _ZN9LocApiV0214getBlackli
96:   FUNC GLOBAL DEFAULT UND _ZN9LocApiV0214injectPosi
97:   FUNC GLOBAL DEFAULT UND _ZN9LocApiV0214injectPosi
98:   FUNC GLOBAL DEFAULT UND _ZN9LocApiV0214injectPosi
99:   FUNC GLOBAL DEFAULT UND _ZN9LocApiV0214locSyncSen
100:   FUNC GLOBAL DEFAULT UND _ZN9LocApiV0214modifyGeof
101:   FUNC GLOBAL DEFAULT UND _ZN9LocApiV0214removeGeof
102:   FUNC GLOBAL DEFAULT UND _ZN9LocApiV0214resumeGeof
103:   FUNC GLOBAL DEFAULT UND _ZN9LocApiV0214setBlackli
104:   FUNC GLOBAL DEFAULT UND _ZN9LocApiV0214setGpsLock
105:   FUNC GLOBAL DEFAULT UND _ZN9LocApiV0215installAGp
106:   FUNC GLOBAL DEFAULT UND _ZN9LocApiV0216deleteAidi
107:   FUNC GLOBAL DEFAULT UND _ZN9LocApiV0216informNiRe
108:   FUNC GLOBAL DEFAULT UND _ZN9LocApiV0216setLPPConf
109:   FUNC GLOBAL DEFAULT UND _ZN9LocApiV0216setNMEATyp
110:   FUNC GLOBAL DEFAULT UND _ZN9LocApiV0216setTripBat
111:   FUNC GLOBAL DEFAULT UND _ZN9LocApiV0217convertLpp
112:   FUNC GLOBAL DEFAULT UND _ZN9LocApiV0217requestXtr
113:   FUNC GLOBAL DEFAULT UND _ZN9LocApiV0218convertPos
114:   FUNC GLOBAL DEFAULT UND _ZN9LocApiV0218convertSup
115:   FUNC GLOBAL DEFAULT UND _ZN9LocApiV0218setBlackli
116:   FUNC GLOBAL DEFAULT UND _ZN9LocApiV0218setSUPLVer
117:   FUNC GLOBAL DEFAULT UND _ZN9LocApiV0219getBatched
118:   FUNC GLOBAL DEFAULT UND _ZN9LocApiV0220requestFor
119:   FUNC GLOBAL DEFAULT UND _ZN9LocApiV0221getGnssEne
120:   FUNC GLOBAL DEFAULT UND _ZN9LocApiV0221setLPPePro
121:   FUNC GLOBAL DEFAULT UND _ZN9LocApiV0221setLPPePro
122:   FUNC GLOBAL DEFAULT UND _ZN9LocApiV0221stopTimeBa
123:   FUNC GLOBAL DEFAULT UND _ZN9LocApiV0222convertNav
124:   FUNC GLOBAL DEFAULT UND _ZN9LocApiV0222getBestAva
125:   FUNC GLOBAL DEFAULT UND _ZN9LocApiV0222setConstra
126:   FUNC GLOBAL DEFAULT UND _ZN9LocApiV0222startTimeB
127:   FUNC GLOBAL DEFAULT UND _ZN9LocApiV0223getBatched
128:   FUNC GLOBAL DEFAULT UND _ZN9LocApiV0223getBatched
129:   FUNC GLOBAL DEFAULT UND _ZN9LocApiV0223getConstel
130:   FUNC GLOBAL DEFAULT UND _ZN9LocApiV0223setAGLONAS
131:   FUNC GLOBAL DEFAULT UND _ZN9LocApiV0223setConstel
132:   FUNC GLOBAL DEFAULT UND _ZN9LocApiV0223setSensorP
133:   FUNC GLOBAL DEFAULT UND _ZN9LocApiV0223setXtraVer
134:   FUNC GLOBAL DEFAULT UND _ZN9LocApiV0223stopOutdoo
135:   FUNC GLOBAL DEFAULT UND _ZN9LocApiV0224startOutdo
136:   FUNC GLOBAL DEFAULT UND _ZN9LocApiV0225resetConst
137:   FUNC GLOBAL DEFAULT UND _ZN9LocApiV0225stopDistan
138:   FUNC GLOBAL DEFAULT UND _ZN9LocApiV0226handleWwan
139:   FUNC GLOBAL DEFAULT UND _ZN9LocApiV0226reStartOut
140:   FUNC GLOBAL DEFAULT UND _ZN9LocApiV0226startDista
141:   FUNC GLOBAL DEFAULT UND _ZN9LocApiV0227getBatched
142:   FUNC GLOBAL DEFAULT UND _ZN9LocApiV0227stopOutdoo
143:   FUNC GLOBAL DEFAULT UND _ZN9LocApiV0228queryAccum
144:   FUNC GLOBAL DEFAULT UND _ZN9LocApiV0228startOutdo
145:   FUNC GLOBAL DEFAULT UND _ZN9LocApiV0229setSvMeasu
146:   FUNC GLOBAL DEFAULT UND _ZN9LocApiV0230setSensorP
147:   FUNC GLOBAL DEFAULT UND _ZN9LocApiV0231setEmergen
148:   FUNC GLOBAL DEFAULT UND _ZN9LocApiV0232queryAccum
149:   FUNC GLOBAL DEFAULT UND _ZN9LocApiV0235handleZppB
150:   FUNC GLOBAL DEFAULT UND _ZN9LocApiV0237setPositio
151:   FUNC GLOBAL DEFAULT UND _ZN9LocApiV024openEm
152:   FUNC GLOBAL DEFAULT UND _ZN9LocApiV025closeEv
153:   FUNC GLOBAL DEFAULT UND _ZN9LocApiV027eventCbEPvj
154:   FUNC GLOBAL DEFAULT UND _ZN9LocApiV027setTimeElli
155:   FUNC GLOBAL DEFAULT UND _ZN9LocApiV027stopFixEPN8
156:   FUNC GLOBAL DEFAULT UND _ZN9LocApiV028startFixERK
157:   FUNC GLOBAL DEFAULT UND _ZN9LocApiV02C2EmPN8loc_c
158:   FUNC GLOBAL DEFAULT UND _ZN9LocApiV02D2Ev
159:   FUNC GLOBAL DEFAULT UND _ZNKSt3__120__vector_base
160:   FUNC GLOBAL DEFAULT UND _ZdaPv
161:   FUNC GLOBAL DEFAULT UND _Znam
162:   FUNC GLOBAL DEFAULT UND __memcpy_chk@LIBC (2)
163:   FUNC GLOBAL DEFAULT UND clock_gettime@LIBC (2)
164:   FUNC GLOBAL DEFAULT UND loc_get_v02_event_name
165:   FUNC GLOBAL DEFAULT UND memcpy@LIBC (2)
166:   FUNC GLOBAL DEFAULT 13 _ZN8lbs_core10LBSApiBase1
167:   FUNC GLOBAL DEFAULT 13 _ZN8lbs_core10LBSApiBase2
168:   FUNC GLOBAL DEFAULT 13 _ZN8lbs_core10LBSApiBase2
169:   FUNC GLOBAL DEFAULT 13 _ZN8lbs_core14LocApiProxy
170:   FUNC GLOBAL DEFAULT 13 _ZN8lbs_core9LBSApiV0216i
171:   OBJECT GLOBAL DEFAULT 17 _ZTVN8lbs_core9LBSApiV02E
172:   FUNC GLOBAL DEFAULT 13 _ZThn256_N8lbs_core9LBSAp
173:   FUNC GLOBAL DEFAULT 13 _ZN8lbs_core14LBSAdapterB
174:   FUNC GLOBAL DEFAULT 13 _ZN8lbs_core14LBSAdapterB
175:   FUNC GLOBAL DEFAULT 13 _ZN8lbs_core10LBSApiBase1
176:   FUNC GLOBAL DEFAULT 13 _ZN8lbs_core10LBSApiBase2
177:   FUNC GLOBAL DEFAULT 13 _ZThn256_N8lbs_core9LBSAp
178:   FUNC GLOBAL DEFAULT 13 _ZN8lbs_core10LBSApiBase1
179:   FUNC GLOBAL DEFAULT 13 _ZNK8lbs_core8LBSProxy9ge
180:   FUNC GLOBAL DEFAULT 13 _ZN8lbs_core9LBSApiV0219d
181:   FUNC GLOBAL DEFAULT 13 _ZThn256_N8lbs_core9LBSAp
182:   FUNC GLOBAL DEFAULT 13 _ZThn256_N8lbs_core9LBSAp
183:   OBJECT GLOBAL DEFAULT 22 _ZN8lbs_core8LBSProxy5mLo
184:   FUNC GLOBAL DEFAULT 13 _ZN8lbs_core10LBSApiBase1
185:   FUNC GLOBAL DEFAULT 13 _ZN8lbs_core14LBSAdapterB
186:   FUNC GLOBAL DEFAULT 13 _ZN8lbs_core14LBSAdapterB
187:   FUNC GLOBAL DEFAULT 13 _ZN8lbs_core10LBSApiBase1
188:   FUNC GLOBAL DEFAULT 13 _ZN8lbs_core10LBSApiBase2
189:   OBJECT GLOBAL DEFAULT 22 _ZN8lbs_core8LBSProxy8mAd
190:   FUNC GLOBAL DEFAULT 13 _ZNK8lbs_core8LBSProxy31p
191:   FUNC GLOBAL DEFAULT 13 _ZN8lbs_core9LBSApiV0210n
192:   FUNC GLOBAL DEFAULT 13 _ZN8lbs_core9LBSApiV02D1E
193:   FUNC GLOBAL DEFAULT 13 _ZThn256_N8lbs_core9LBSAp
194:   OBJECT GLOBAL DEFAULT 22 _ZN8lbs_core8LBSProxy29mL
195:   FUNC GLOBAL DEFAULT 13 _ZN8lbs_core9LBSApiV0216i
196:   FUNC GLOBAL DEFAULT 13 _ZN8lbs_core9LBSApiV0219i
197:   FUNC GLOBAL DEFAULT 13 _ZN8lbs_core9LBSApiV0219i
198:   FUNC GLOBAL DEFAULT 13 _ZN8lbs_core9LBSApiV0222c
199:   FUNC GLOBAL DEFAULT 13 _ZN8lbs_core9LBSApiV0223s
200:   FUNC GLOBAL DEFAULT 13 _ZN8lbs_core9LBSApiV02C1E
201:   FUNC GLOBAL DEFAULT 13 _ZN8lbs_core9LBSApiV0213m
202:   FUNC GLOBAL DEFAULT 13 _ZThn256_N8lbs_core9LBSAp
203:   FUNC GLOBAL DEFAULT 13 _ZN8lbs_core10LBSApiBase1
204:   FUNC GLOBAL DEFAULT 13 _ZN8lbs_core14LBSAdapterB
205:   FUNC GLOBAL DEFAULT 13 _ZN8lbs_core9LBSApiV0223w
206:   FUNC GLOBAL DEFAULT 13 _ZThn256_N8lbs_core9LBSAp
207:   FUNC GLOBAL DEFAULT 13 _ZN8lbs_core10LBSApiBase1
208:   FUNC GLOBAL DEFAULT 13 _ZN8lbs_core9LBSApiV028sh
209:   FUNC GLOBAL DEFAULT 13 _ZN8lbs_core9LBSApiV029oo
210:   FUNC GLOBAL DEFAULT 13 _ZN8lbs_core10LBSApiBase1
211:   FUNC GLOBAL DEFAULT 13 _ZN8lbs_core9LBSApiV0215c
212:   FUNC GLOBAL DEFAULT 13 _ZN8lbs_core14LocApiProxy
213:   FUNC GLOBAL DEFAULT 13 _ZN8lbs_core10LBSApiBase1
214:   FUNC GLOBAL DEFAULT 13 _ZN8lbs_core9LBSApiV0219c
215:   FUNC GLOBAL DEFAULT 13 _ZThn256_N8lbs_core9LBSAp
216:   FUNC GLOBAL DEFAULT 13 _ZThn256_N8lbs_core9LBSAp
217:   OBJECT GLOBAL DEFAULT 17 _ZTVN8lbs_core8LBSProxyE
218:   FUNC GLOBAL DEFAULT 13 _ZN8lbs_core14LocApiProxy
219:   FUNC GLOBAL DEFAULT 13 _ZN8lbs_core9LBSApiV0214t
220:   FUNC GLOBAL DEFAULT 13 _ZThn256_N8lbs_core9LBSAp
221:   FUNC GLOBAL DEFAULT 13 _ZThn256_N8lbs_core9LBSAp
222:   FUNC GLOBAL DEFAULT 13 _ZN8lbs_core10LBSApiBase1
223:   FUNC GLOBAL DEFAULT 13 _ZN8lbs_core10LBSApiBase1
224:   FUNC GLOBAL DEFAULT 13 _ZNK8lbs_core8LBSProxy19i
225:   FUNC GLOBAL DEFAULT 13 _ZN8lbs_core9LBSApiV0215i
226:   FUNC GLOBAL DEFAULT 13 _ZN8lbs_core9LBSApiV0226i
227:   FUNC GLOBAL DEFAULT 13 _ZThn256_N8lbs_core9LBSAp
228:   FUNC GLOBAL DEFAULT 13 _ZN8lbs_core14LBSAdapterB
229:   FUNC GLOBAL DEFAULT 13 _ZN8lbs_core10LBSApiBase1
230:   FUNC GLOBAL DEFAULT 13 _ZN8lbs_core9LBSApiV0231g
231:   FUNC GLOBAL DEFAULT 13 _ZN8lbs_core14LBSAdapterB
232:   FUNC GLOBAL DEFAULT 13 _ZN8lbs_core14LBSAdapterB
233:   FUNC WEAK DEFAULT 13 _ZNSt3__16__treeINS_12__v
234:   FUNC GLOBAL DEFAULT 13 _ZN8lbs_core10LBSApiBase1
235:   FUNC GLOBAL DEFAULT 13 _ZN8lbs_core10LBSApiBase1
236:   FUNC GLOBAL DEFAULT 13 _ZN8lbs_core10LBSApiBase1
237:   FUNC GLOBAL DEFAULT 13 _ZN8lbs_core10LBSApiBase1
238:   FUNC GLOBAL DEFAULT 13 _ZN8lbs_core10LBSApiBase2
239:   FUNC GLOBAL DEFAULT 13 _ZN8lbs_core14LocApiProxy
240:   FUNC GLOBAL DEFAULT 13 _ZN8lbs_core9LBSApiV0219m
241:   FUNC WEAK DEFAULT 13 _ZNSt3__16vectorI11BSObsD
242:   FUNC GLOBAL DEFAULT 13 _ZThn256_N8lbs_core9LBSAp
243:   FUNC GLOBAL DEFAULT 13 _ZThn256_N8lbs_core9LBSAp
244:   OBJECT GLOBAL DEFAULT 22 _ZN8lbs_core8LBSProxy23mN
245:   FUNC GLOBAL DEFAULT 13 _ZN8lbs_core10LBSApiBase1
246:   FUNC GLOBAL DEFAULT 13 _ZN8lbs_core10LBSApiBase1
247:   FUNC GLOBAL DEFAULT 13 _ZN8lbs_core10LBSApiBase1
248:   OBJECT GLOBAL DEFAULT 15 _ZN8lbs_core8LBSProxy29FF
249:   FUNC GLOBAL DEFAULT 13 getLBSProxy
250:   FUNC GLOBAL DEFAULT 13 _ZN8lbs_core9LBSApiV0221i
251:   FUNC GLOBAL DEFAULT 13 _ZThn256_N8lbs_core9LBSAp
252:   FUNC GLOBAL DEFAULT 13 _ZThn256_N8lbs_core9LBSAp
253:   FUNC GLOBAL DEFAULT 13 _ZN8lbs_core10LBSApiBase1
254:   FUNC GLOBAL DEFAULT 13 _ZN8lbs_core10LBSApiBaseC
255:   OBJECT WEAK DEFAULT 17 _ZTVN8loc_core15LocApiPro
256:   FUNC GLOBAL DEFAULT 13 _ZN8lbs_core9LBSApiV0221m
257:   FUNC GLOBAL DEFAULT 13 _ZN8lbs_core9LBSApiV02D2E
258:   FUNC GLOBAL DEFAULT 13 _ZThn256_N8lbs_core9LBSAp
259:   FUNC GLOBAL DEFAULT 13 _ZThn256_N8lbs_core9LBSAp
260:   FUNC GLOBAL DEFAULT 13 _ZThn256_N8lbs_core9LBSAp
261:   FUNC GLOBAL DEFAULT 13 _ZN8lbs_core14LBSAdapterB
262:   FUNC GLOBAL DEFAULT 13 _ZN8lbs_core14LBSAdapterB
263:   FUNC GLOBAL DEFAULT 13 _ZN8lbs_core10LBSApiBase1
264:   FUNC GLOBAL DEFAULT 13 _ZN8lbs_core10LBSApiBaseC
265:   OBJECT GLOBAL DEFAULT 22 _ZN8lbs_core8LBSProxy13mC
266:   FUNC GLOBAL DEFAULT 13 _ZN8lbs_core14LocApiProxy
267:   FUNC GLOBAL DEFAULT 13 _ZN8lbs_core9LBSApiV0216i
268:   FUNC GLOBAL DEFAULT 13 _ZN8lbs_core9LBSApiV0217r
269:   FUNC GLOBAL DEFAULT 13 _ZN8lbs_core10LBSApiBase1
270:   FUNC GLOBAL DEFAULT 13 _ZN8lbs_core10LBSApiBase1
271:   FUNC GLOBAL DEFAULT 13 _ZThn256_N8lbs_core9LBSAp
272:   FUNC GLOBAL DEFAULT 13 _ZN8lbs_core14LBSAdapterB
273:   FUNC GLOBAL DEFAULT 13 _ZN8lbs_core14LBSAdapterB
274:   FUNC GLOBAL DEFAULT 13 _ZN8lbs_core10LBSApiBase1
275:   FUNC GLOBAL DEFAULT 13 _ZN8lbs_core10LBSApiBase8
276:   OBJECT GLOBAL DEFAULT 17 _ZTVN8lbs_core14LocApiPro
277:   FUNC GLOBAL DEFAULT 13 _ZN8lbs_core9LBSApiV0214i
278:   FUNC GLOBAL DEFAULT 13 _ZN8lbs_core9LBSApiV0215r
279:   FUNC GLOBAL DEFAULT 13 _ZN8lbs_core9LBSApiV0218b
280:   FUNC GLOBAL DEFAULT 13 _ZN8lbs_core9LBSApiV0226w
281:   OBJECT GLOBAL DEFAULT 15 _ZN8lbs_core8LBSProxy35CO
282:   FUNC GLOBAL DEFAULT 13 _ZN8lbs_core9LBSApiV0214i
283:   FUNC GLOBAL DEFAULT 13 _ZN8lbs_core9LBSApiV0220c
284:   FUNC GLOBAL DEFAULT 13 _ZN8lbs_core9LBSApiV02D0E
285:   FUNC GLOBAL DEFAULT 13 _ZThn256_N8lbs_core9LBSAp
286:   FUNC GLOBAL DEFAULT 13 _ZN8lbs_core14LBSAdapterB
287:   FUNC GLOBAL DEFAULT 13 _ZN8lbs_core14LBSAdapterB
288:   OBJECT GLOBAL DEFAULT 17 _ZTVN8lbs_core14LBSAdapte
289:   OBJECT WEAK DEFAULT 15 _ZZNK8lbs_core8LBSProxy14
290:   FUNC WEAK DEFAULT 13 _ZNSt3__16vectorI8BSInfo_
291:   FUNC GLOBAL DEFAULT 13 _ZN8lbs_core9LBSApiV02C2E
292:   FUNC GLOBAL DEFAULT 13 _ZN8lbs_core10LBSApiBase2
293:   FUNC GLOBAL DEFAULT 13 _ZN8lbs_core14LBSAdapterB
294:   FUNC GLOBAL DEFAULT 13 _ZN8lbs_core10LBSApiBase9
295:   FUNC GLOBAL DEFAULT 13 _ZN8lbs_core14LBSAdapterB
296:   FUNC GLOBAL DEFAULT 13 _ZN8lbs_core14LBSAdapterB
297:   FUNC GLOBAL DEFAULT 13 _ZN8lbs_core14LBSAdapterB
298:   OBJECT WEAK DEFAULT 17 _ZTVN8loc_core9LocApiMsgE
299:   FUNC GLOBAL DEFAULT 13 _ZN8lbs_core14LBSAdapterB
300:   FUNC GLOBAL DEFAULT 13 _ZN8lbs_core10LBSApiBase2
301:   FUNC GLOBAL DEFAULT 13 _ZN8lbs_core9LBSApiV0211c
302:   FUNC GLOBAL DEFAULT 13 _ZN8lbs_core10LBSApiBase1
303:   FUNC GLOBAL DEFAULT 13 _ZN8lbs_core14LocApiProxy
304:   FUNC GLOBAL DEFAULT 13 _ZN8lbs_core10LBSApiBase1
305:   FUNC GLOBAL DEFAULT 13 _ZN8lbs_core10LBSApiBase2
306:   FUNC GLOBAL DEFAULT 13 _ZN8lbs_core9LBSApiV0233g
307:   FUNC GLOBAL DEFAULT 13 _ZThn256_N8lbs_core9LBSAp
308:   FUNC GLOBAL DEFAULT 13 _ZN8lbs_core10LBSApiBase2
309:   FUNC GLOBAL DEFAULT 13 _ZN8lbs_core10LBSApiBase2
310:   OBJECT GLOBAL DEFAULT 17 _ZTVN8lbs_core10LBSApiBas
311:   FUNC GLOBAL DEFAULT 13 _ZN8lbs_core9LBSApiV027ev
312:   FUNC GLOBAL DEFAULT 13 _ZThn256_N8lbs_core9LBSAp
313:   FUNC GLOBAL DEFAULT 13 _ZThn256_N8lbs_core9LBSAp
314:   OBJECT WEAK DEFAULT 17 _ZTVN8loc_core14LocApiRes
