 0x000000000000000e (SONAME)             Library soname: [libnativehelper.so]
  
Symbol   contains 94 entries:
Num:   Type Bind Vis Ndx Name
0:   NOTYPE LOCAL DEFAULT UND
1:   NOTYPE WEAK DEFAULT UND __gmon_start__
2:   NOTYPE WEAK DEFAULT UND _ITM_deregisterTMCloneTab
3:   NOTYPE WEAK DEFAULT UND _ITM_registerTMCloneTable
4:   FUNC WEAK DEFAULT UND __cxa_finalize@GLIBC_2.2.5 (2)
5:   NOTYPE WEAK DEFAULT UND _Jv_RegisterClasses
6:   FUNC GLOBAL DEFAULT UND _ZNSt3__112basic_stringIc
7:   FUNC GLOBAL DEFAULT UND _ZNSt3__112basic_stringIc
8:   FUNC GLOBAL DEFAULT UND _ZdlPv
9:   FUNC GLOBAL DEFAULT UND __android_log_assert
10:   FUNC GLOBAL DEFAULT UND __android_log_print
11:   FUNC GLOBAL DEFAULT UND __android_log_write
12:   FUNC GLOBAL DEFAULT UND __stack_chk_fail@GLIBC_2.4 (3)
13:   FUNC GLOBAL DEFAULT UND __vsnprintf_chk@GLIBC_2.3.4 (4)
14:   FUNC GLOBAL DEFAULT UND strerror_r@GLIBC_2.2.5 (2)
15:   FUNC GLOBAL DEFAULT UND _ZNSt3__15mutex4lockEv
16:   FUNC GLOBAL DEFAULT UND _ZNSt3__15mutex6unlockEv
17:   FUNC GLOBAL DEFAULT UND _ZNSt3__15mutexD1Ev
18:   FUNC GLOBAL DEFAULT UND __cxa_atexit@GLIBC_2.2.5 (2)
19:   FUNC GLOBAL DEFAULT UND _ZNKSt3__121__basic_strin
20:   FUNC GLOBAL DEFAULT UND _Znwm
21:   FUNC GLOBAL DEFAULT UND dlclose@GLIBC_2.2.5 (5)
22:   FUNC GLOBAL DEFAULT UND dlerror@GLIBC_2.2.5 (5)
23:   FUNC GLOBAL DEFAULT UND dlopen@GLIBC_2.2.5 (5)
24:   FUNC GLOBAL DEFAULT UND dlsym@GLIBC_2.2.5 (5)
25:   FUNC GLOBAL DEFAULT UND memcpy@GLIBC_2.14 (6)
26:   FUNC GLOBAL DEFAULT UND strcmp@GLIBC_2.2.5 (2)
27:   FUNC GLOBAL DEFAULT UND strlen@GLIBC_2.2.5 (2)
28:   FUNC GLOBAL PROTECTED 12 _ZN12JniConstants12Uninit
29:   FUNC GLOBAL PROTECTED 12 jniGetNioBufferBaseArray
30:   FUNC GLOBAL PROTECTED 12 jniSetFileDescriptorOfFD
31:   FUNC GLOBAL PROTECTED 12 jniThrowExceptionFmt
32:   FUNC GLOBAL PROTECTED 12 _ZN12JniConstants17GetNio
33:   FUNC GLOBAL PROTECTED 12 JNI_GetDefaultJavaVMInitA
34:   FUNC GLOBAL PROTECTED 12 _ZN17JniInvocationImplC1E
35:   FUNC GLOBAL PROTECTED 12 jniCreateString
36:   FUNC GLOBAL PROTECTED 12 jniGetOwnerIdFromFileDesc
37:   FUNC GLOBAL PROTECTED 12 jniGetReferent
38:   FUNC GLOBAL PROTECTED 12 jniThrowIOException
39:   FUNC GLOBAL PROTECTED 12 _ZN17JniInvocationImpl28J
40:   FUNC GLOBAL PROTECTED 12 _ZN17JniInvocationImplC2E
41:   FUNC GLOBAL PROTECTED 12 _ZN17JniInvocationImplD1E
42:   FUNC GLOBAL PROTECTED 12 _ZN12JniConstants24GetNio
43:   FUNC GLOBAL PROTECTED 12 _ZN12JniConstants25GetNio
44:   FUNC GLOBAL PROTECTED 12 _ZN13JniInvocation10GetLi
45:   FUNC GLOBAL PROTECTED 12 _ZN17JniInvocationImpl10F
46:   FUNC GLOBAL PROTECTED 12 _ZN17JniInvocationImplD2E
47:   FUNC WEAK PROTECTED 12 _ZN7_JNIEnv19CallStaticIn
48:   FUNC WEAK PROTECTED 12 _ZN7_JNIEnv9NewObjectEP7_
49:   FUNC GLOBAL PROTECTED 12 jniGetFDFromFileDescripto
50:   FUNC GLOBAL PROTECTED 12 _ZN12JniConstants14GetStr
51:   FUNC GLOBAL PROTECTED 12 _ZN12JniConstants29GetNio
52:   FUNC GLOBAL PROTECTED 12 JniInvocationCreate
53:   FUNC GLOBAL PROTECTED 12 JniInvocationInit
54:   FUNC GLOBAL PROTECTED 12 _ZN12JniConstants21GetRef
55:   FUNC GLOBAL PROTECTED 12 _ZN12JniConstants36GetNio
56:   FUNC GLOBAL PROTECTED 12 jniThrowNullPointerExcept
57:   FUNC GLOBAL PROTECTED 12 JNI_GetCreatedJavaVMs
58:   FUNC GLOBAL PROTECTED 12 JniInvocationGetLibrary
59:   OBJECT GLOBAL PROTECTED 25 _ZN17JniInvocationImpl15j
60:   FUNC GLOBAL PROTECTED 12 newStringArray
61:   FUNC WEAK PROTECTED 12 _ZN7_JNIEnv16CallObjectMe
62:   FUNC GLOBAL PROTECTED 12 jniRegisterNativeMethods
63:   FUNC GLOBAL PROTECTED 12 _ZN17JniInvocationImpl21J
64:   FUNC GLOBAL PROTECTED 12 jniGetNioBufferBaseArrayO
65:   FUNC GLOBAL PROTECTED 12 jniGetNioBufferPointer
66:   FUNC GLOBAL PROTECTED 12 jniLogException
67:   FUNC GLOBAL PROTECTED 12 _ZN12JniConstants23GetNio
68:   FUNC GLOBAL PROTECTED 12 _ZN12JniConstants32Ensure
69:   FUNC GLOBAL PROTECTED 12 _ZN17JniInvocationImpl16J
70:   FUNC GLOBAL DEFAULT 13 _init
71:   FUNC GLOBAL PROTECTED 12 _ZN12JniConstants17GetNio
72:   FUNC GLOBAL PROTECTED 12 _ZN12JniConstants29GetFil
73:   FUNC GLOBAL PROTECTED 12 _ZN12JniConstants30GetNio
74:   FUNC GLOBAL PROTECTED 12 jniUninitializeConstants
75:   FUNC GLOBAL PROTECTED 12 _ZN17JniInvocationImpl10G
76:   FUNC GLOBAL PROTECTED 12 _ZN12JniConstants22GetNio
77:   FUNC GLOBAL PROTECTED 12 _ZN12JniConstants32GetFil
78:   FUNC WEAK PROTECTED 12 _ZN7_JNIEnv22CallStaticOb
79:   FUNC GLOBAL PROTECTED 12 jniCreateFileDescriptor
80:   FUNC GLOBAL PROTECTED 12 jniStrError
81:   FUNC GLOBAL PROTECTED 12 jniThrowException
82:   FUNC GLOBAL DEFAULT 14 _fini
83:   FUNC GLOBAL PROTECTED 12 JniInvocationDestroy
84:   FUNC GLOBAL PROTECTED 12 _ZN12JniConstants22GetFil
85:   FUNC GLOBAL PROTECTED 12 _ZN17JniInvocationImpl4In
86:   FUNC GLOBAL PROTECTED 12 jniGetNioBufferFields
87:   FUNC GLOBAL PROTECTED 12 jniThrowRuntimeException
88:   FUNC GLOBAL PROTECTED 12 JNI_CreateJavaVM
89:   FUNC GLOBAL PROTECTED 12 _ZN17JniInvocationImpl16G
90:   FUNC GLOBAL PROTECTED 12 toStringArray
91:   FUNC GLOBAL PROTECTED 12 _ZN12JniConstants27GetFil
92:   FUNC GLOBAL PROTECTED 12 _ZN12JniConstants33GetNio
93:   FUNC GLOBAL PROTECTED 12 _ZN12JniConstants17GetRef
