 0x000000000000000e (SONAME)             Library soname: [libext4_utils.so]
  
Symbol   contains 43 entries:
Num:   Type Bind Vis Ndx Name
0:   NOTYPE LOCAL DEFAULT UND
1:   NOTYPE WEAK DEFAULT UND __gmon_start__
2:   NOTYPE WEAK DEFAULT UND _ITM_deregisterTMCloneTab
3:   NOTYPE WEAK DEFAULT UND _ITM_registerTMCloneTable
4:   FUNC WEAK DEFAULT UND __cxa_finalize@GLIBC_2.2.5 (2)
5:   NOTYPE WEAK DEFAULT UND _Jv_RegisterClasses
6:   FUNC GLOBAL DEFAULT UND __errno_location@GLIBC_2.2.5 (3)
7:   FUNC GLOBAL DEFAULT UND __fxstat64@GLIBC_2.2.5 (2)
8:   FUNC GLOBAL DEFAULT UND __longjmp_chk@GLIBC_2.11 (4)
9:   FUNC GLOBAL DEFAULT UND __stack_chk_fail@GLIBC_2.4 (5)
10:   FUNC GLOBAL DEFAULT UND calloc@GLIBC_2.2.5 (2)
11:   FUNC GLOBAL DEFAULT UND fprintf@GLIBC_2.2.5 (2)
12:   FUNC GLOBAL DEFAULT UND free@GLIBC_2.2.5 (2)
13:   FUNC GLOBAL DEFAULT UND ioctl@GLIBC_2.2.5 (2)
14:   FUNC GLOBAL DEFAULT UND lseek64@GLIBC_2.2.5 (3)
15:   FUNC GLOBAL DEFAULT UND memcpy@GLIBC_2.14 (6)
16:   FUNC GLOBAL DEFAULT UND printf@GLIBC_2.2.5 (2)
17:   FUNC GLOBAL DEFAULT UND puts@GLIBC_2.2.5 (2)
18:   FUNC GLOBAL DEFAULT UND read@GLIBC_2.2.5 (3)
19:   OBJECT GLOBAL DEFAULT UND stderr@GLIBC_2.2.5 (2)
20:   FUNC GLOBAL DEFAULT UND strerror@GLIBC_2.2.5 (2)
21:   FUNC GLOBAL DEFAULT UND _ZN7android4base10WriteFu
22:   FUNC GLOBAL DEFAULT UND fsync@GLIBC_2.2.5 (3)
23:   FUNC GLOBAL DEFAULT UND memset@GLIBC_2.2.5 (2)
24:   FUNC GLOBAL DEFAULT 13 _init
25:   FUNC GLOBAL DEFAULT 12 _Z16bitmap_clear_bitPhj
26:   FUNC GLOBAL DEFAULT 12 _Z23ext4_bg_has_super_blo
27:   FUNC GLOBAL DEFAULT 12 ext4_parse_sb
28:   OBJECT GLOBAL DEFAULT 24 force
29:   FUNC GLOBAL DEFAULT 12 get_block_device_size
30:   OBJECT GLOBAL DEFAULT 24 setjmp_env
31:   FUNC GLOBAL DEFAULT 12 _Z18ext4_parse_sb_infoP16
32:   FUNC GLOBAL DEFAULT 12 _Z21ext4_free_fs_aux_info
33:   FUNC GLOBAL DEFAULT 12 _Z23ext4_create_fs_aux_in
34:   OBJECT GLOBAL DEFAULT 24 info
35:   FUNC GLOBAL DEFAULT 12 read_ext
36:   FUNC GLOBAL DEFAULT 14 _fini
37:   FUNC GLOBAL DEFAULT 12 _Z7read_sbiP16ext4_super_
38:   OBJECT GLOBAL DEFAULT 24 aux_info
39:   FUNC GLOBAL DEFAULT 12 get_file_size
40:   FUNC GLOBAL DEFAULT 12 bitmap_get_bit
41:   FUNC GLOBAL DEFAULT 12 is_block_device_fd
42:   FUNC GLOBAL DEFAULT 12 wipe_block_device
