 0x000000000000000e (SONAME)             Library soname: [libdexfile_support.so]
  
Symbol   contains 37 entries:
Num:   Type Bind Vis Ndx Name
0:   NOTYPE LOCAL DEFAULT UND
1:   NOTYPE WEAK DEFAULT UND __gmon_start__
2:   NOTYPE WEAK DEFAULT UND _ITM_deregisterTMCloneTab
3:   NOTYPE WEAK DEFAULT UND _ITM_registerTMCloneTable
4:   FUNC WEAK DEFAULT UND __cxa_finalize@GLIBC_2.2.5 (2)
5:   NOTYPE WEAK DEFAULT UND _Jv_RegisterClasses
6:   FUNC GLOBAL DEFAULT UND _ZNKSt3__120__vector_base
7:   FUNC GLOBAL DEFAULT UND _ZNSt3__111__call_onceERV
8:   OBJECT GLOBAL DEFAULT UND _ZTVN10__cxxabiv117__clas
9:   FUNC GLOBAL DEFAULT UND _ZdlPv
10:   FUNC GLOBAL DEFAULT UND _Znwm
11:   FUNC GLOBAL DEFAULT UND __android_log_assert
12:   FUNC GLOBAL DEFAULT UND __stack_chk_fail@GLIBC_2.4 (3)
13:   FUNC GLOBAL DEFAULT UND abort@GLIBC_2.2.5 (2)
14:   FUNC GLOBAL DEFAULT UND dlerror@GLIBC_2.2.5 (4)
15:   FUNC GLOBAL DEFAULT UND dlopen@GLIBC_2.2.5 (4)
16:   FUNC GLOBAL DEFAULT UND dlsym@GLIBC_2.2.5 (4)
17:   FUNC GLOBAL DEFAULT 13 _init
18:   FUNC GLOBAL DEFAULT 12 _ZN7art_api3dex7DexFile16
19:   OBJECT GLOBAL DEFAULT 25 _ZN7art_api3dex7DexFile26
20:   FUNC GLOBAL DEFAULT 12 _ZN7art_api3dex7DexFileD1
21:   OBJECT GLOBAL DEFAULT 9 _ZTSN7art_api3dex7DexFile
22:   OBJECT GLOBAL DEFAULT 21 _ZTVN7art_api3dex7DexFile
23:   OBJECT GLOBAL DEFAULT 25 _ZN7art_api3dex7DexFile29
24:   FUNC GLOBAL DEFAULT 12 _ZN7art_api3dex7DexFileD0
25:   FUNC WEAK DEFAULT 12 _ZNSt3__16vectorIN7art_ap
26:   FUNC GLOBAL DEFAULT 12 _ZN7art_api3dex22LoadLibd
27:   OBJECT GLOBAL DEFAULT 25 _ZN7art_api3dex9DexString
28:   FUNC GLOBAL DEFAULT 14 _fini
29:   OBJECT GLOBAL DEFAULT 25 _ZN7art_api3dex7DexFile16
30:   FUNC GLOBAL DEFAULT 12 _ZN7art_api3dex7DexFile21
31:   OBJECT GLOBAL DEFAULT 25 _ZN7art_api3dex7DexFile22
32:   OBJECT GLOBAL DEFAULT 25 _ZN7art_api3dex9DexString
33:   OBJECT GLOBAL DEFAULT 21 _ZTIN7art_api3dex7DexFile
34:   OBJECT GLOBAL DEFAULT 25 _ZN7art_api3dex7DexFile34
35:   FUNC GLOBAL DEFAULT 12 _ZN7art_api3dex7DexFileD2
36:   OBJECT GLOBAL DEFAULT 25 _ZN7art_api3dex9DexString
