 0x000000000000000e (SONAME)             Library soname: [libscudo_wrapper.so]
  
Symbol   contains 39 entries:
Num:   Type Bind Vis Ndx Name
0:   NOTYPE LOCAL DEFAULT UND
1:   NOTYPE GLOBAL DEFAULT UND __cxa_finalize
2:   NOTYPE GLOBAL DEFAULT UND __errno
3:   NOTYPE GLOBAL DEFAULT UND dl_iterate_phdr
4:   NOTYPE WEAK DEFAULT UND _ZN11__sanitizer14real_si
5:   NOTYPE WEAK DEFAULT UND __android_log_write
6:   NOTYPE GLOBAL DEFAULT UND __sched_cpucount
7:   NOTYPE GLOBAL DEFAULT UND android_set_abort_message
8:   NOTYPE GLOBAL DEFAULT UND clock_gettime
9:   NOTYPE GLOBAL DEFAULT UND getauxval
10:   NOTYPE GLOBAL DEFAULT UND getrusage
11:   NOTYPE WEAK DEFAULT UND real_clock_gettime
12:   NOTYPE GLOBAL DEFAULT UND sched_getaffinity
13:   NOTYPE GLOBAL DEFAULT UND sigaction
14:   NOTYPE GLOBAL DEFAULT UND syslog
15:   NOTYPE GLOBAL DEFAULT UND abort
16:   NOTYPE GLOBAL DEFAULT UND madvise
17:   NOTYPE GLOBAL DEFAULT UND memcpy
18:   NOTYPE GLOBAL DEFAULT UND memset
19:   NOTYPE GLOBAL DEFAULT UND pthread_key_create
20:   NOTYPE GLOBAL DEFAULT UND pthread_once
21:   NOTYPE WEAK DEFAULT UND __progname
22:   NOTYPE GLOBAL DEFAULT UND __stack_chk_fail
23:   NOTYPE GLOBAL DEFAULT UND __strlcpy_chk
24:   NOTYPE GLOBAL DEFAULT UND connect
25:   NOTYPE GLOBAL DEFAULT UND gettid
26:   NOTYPE GLOBAL DEFAULT UND socket
27:   NOTYPE GLOBAL DEFAULT UND strlen
28:   NOTYPE GLOBAL DEFAULT UND syscall
29:   NOTYPE GLOBAL DEFAULT UND writev
30:   FUNC GLOBAL DEFAULT 14 scudo_aligned_alloc@@LIBC_SCUDO
31:   FUNC GLOBAL DEFAULT 14 scudo_calloc@@LIBC_SCUDO
32:   FUNC GLOBAL DEFAULT 14 scudo_free@@LIBC_SCUDO
33:   FUNC GLOBAL DEFAULT 14 scudo_mallinfo@@LIBC_SCUDO
34:   FUNC GLOBAL DEFAULT 14 scudo_malloc@@LIBC_SCUDO
35:   FUNC GLOBAL DEFAULT 14 scudo_memalign@@LIBC_SCUDO
36:   FUNC GLOBAL DEFAULT 14 scudo_posix_memalign@@LIBC_SCUDO
37:   FUNC GLOBAL DEFAULT 14 scudo_realloc@@LIBC_SCUDO
38:   FUNC GLOBAL DEFAULT 14 scudo_malloc_usable_size@@LIBC_SCUDO
