 0x000000000000000e (SONAME)             Library soname: [libsigchain.so]
  
Symbol   contains 16 entries:
Num:   Type Bind Vis Ndx Name
0:   NOTYPE LOCAL DEFAULT UND
1:   NOTYPE WEAK DEFAULT UND __gmon_start__
2:   NOTYPE WEAK DEFAULT UND _ITM_deregisterTMCloneTab
3:   NOTYPE WEAK DEFAULT UND _ITM_registerTMCloneTable
4:   FUNC WEAK DEFAULT UND __cxa_finalize@GLIBC_2.2.5 (2)
5:   NOTYPE WEAK DEFAULT UND _Jv_RegisterClasses
6:   FUNC GLOBAL DEFAULT UND __stack_chk_fail@GLIBC_2.4 (3)
7:   FUNC GLOBAL DEFAULT UND __vfprintf_chk@GLIBC_2.3.4 (4)
8:   FUNC GLOBAL DEFAULT UND abort@GLIBC_2.2.5 (2)
9:   FUNC GLOBAL DEFAULT UND putchar@GLIBC_2.2.5 (2)
10:   OBJECT GLOBAL DEFAULT UND stdout@GLIBC_2.2.5 (2)
11:   FUNC GLOBAL DEFAULT 13 _init
12:   FUNC GLOBAL DEFAULT 14 _fini
13:   FUNC GLOBAL PROTECTED 12 AddSpecialSignalHandlerFn
14:   FUNC GLOBAL PROTECTED 12 EnsureFrontOfChain
15:   FUNC GLOBAL PROTECTED 12 RemoveSpecialSignalHandle
