 0x000000000000000e (SONAME)             Library soname: [libbacktrace.so]
  
Symbol   contains 280 entries:
Num:   Type Bind Vis Ndx Name
0:   NOTYPE LOCAL DEFAULT UND
1:   NOTYPE WEAK DEFAULT UND __gmon_start__
2:   NOTYPE WEAK DEFAULT UND _ITM_deregisterTMCloneTab
3:   NOTYPE WEAK DEFAULT UND _ITM_registerTMCloneTable
4:   FUNC WEAK DEFAULT UND __cxa_finalize@GLIBC_2.2.5 (2)
5:   NOTYPE WEAK DEFAULT UND _Jv_RegisterClasses
6:   FUNC GLOBAL DEFAULT UND _ZN7android4base12StringP
7:   FUNC GLOBAL DEFAULT UND _ZN7android4base16ReadFil
8:   FUNC GLOBAL DEFAULT UND _ZNSt3__112basic_stringIc
9:   FUNC GLOBAL DEFAULT UND _ZNSt3__112basic_stringIc
10:   FUNC GLOBAL DEFAULT UND _ZNSt3__112basic_stringIc
11:   FUNC GLOBAL DEFAULT UND _ZNSt3__112basic_stringIc
12:   FUNC GLOBAL DEFAULT UND _ZNSt3__112basic_stringIc
13:   FUNC GLOBAL DEFAULT UND _ZNSt3__19to_stringEi
14:   OBJECT GLOBAL DEFAULT UND _ZTVN10__cxxabiv117__clas
15:   OBJECT GLOBAL DEFAULT UND _ZTVN10__cxxabiv120__si_c
16:   FUNC GLOBAL DEFAULT UND _ZdlPv
17:   FUNC GLOBAL DEFAULT UND _Znwm
18:   FUNC GLOBAL DEFAULT UND __ctype_b_loc@GLIBC_2.3 (3)
19:   FUNC GLOBAL DEFAULT UND __stack_chk_fail@GLIBC_2.4 (4)
20:   FUNC GLOBAL DEFAULT UND abort@GLIBC_2.2.5 (2)
21:   FUNC GLOBAL DEFAULT UND getpid@GLIBC_2.2.5 (2)
22:   FUNC GLOBAL DEFAULT UND memmove@GLIBC_2.2.5 (2)
23:   FUNC GLOBAL DEFAULT UND strchr@GLIBC_2.2.5 (2)
24:   FUNC GLOBAL DEFAULT UND strtoull@GLIBC_2.2.5 (2)
25:   FUNC GLOBAL DEFAULT UND _ZN7android4base11GetThre
26:   FUNC GLOBAL DEFAULT UND _ZNSt3__112basic_stringIc
27:   FUNC GLOBAL DEFAULT UND _ZNSt3__112basic_stringIc
28:   FUNC GLOBAL DEFAULT UND _ZNSt3__112basic_stringIc
29:   FUNC GLOBAL DEFAULT UND _ZNSt3__1plIcNS_11char_tr
30:   FUNC GLOBAL DEFAULT UND __android_log_print
31:   FUNC GLOBAL DEFAULT UND __cxa_pure_virtual
32:   FUNC GLOBAL DEFAULT UND _ZNKSt3__112basic_stringI
33:   FUNC GLOBAL DEFAULT UND _ZNKSt3__121__basic_strin
34:   FUNC GLOBAL DEFAULT UND __errno_location@GLIBC_2.2.5 (5)
35:   FUNC GLOBAL DEFAULT UND __libc_current_sigrtmin@GLIBC_2.2.5 (5)
36:   FUNC GLOBAL DEFAULT UND basename@GLIBC_2.2.5 (2)
37:   FUNC GLOBAL DEFAULT UND memcpy@GLIBC_2.14 (6)
38:   FUNC GLOBAL DEFAULT UND pthread_mutex_lock@GLIBC_2.2.5 (5)
39:   FUNC GLOBAL DEFAULT UND pthread_mutex_unlock@GLIBC_2.2.5 (5)
40:   FUNC GLOBAL DEFAULT UND sigaction@GLIBC_2.2.5 (5)
41:   FUNC GLOBAL DEFAULT UND sigemptyset@GLIBC_2.2.5 (2)
42:   FUNC GLOBAL DEFAULT UND strlen@GLIBC_2.2.5 (2)
43:   FUNC GLOBAL DEFAULT UND tgkill
44:   FUNC GLOBAL DEFAULT UND ptrace@GLIBC_2.2.5 (2)
45:   FUNC GLOBAL DEFAULT UND clock_gettime@GLIBC_2.2.5 (7)
46:   FUNC GLOBAL DEFAULT UND pthread_cond_destroy@GLIBC_2.3.2 (8)
47:   FUNC GLOBAL DEFAULT UND pthread_cond_init@GLIBC_2.3.2 (8)
48:   FUNC GLOBAL DEFAULT UND pthread_cond_signal@GLIBC_2.3.2 (8)
49:   FUNC GLOBAL DEFAULT UND pthread_cond_timedwait@GLIBC_2.3.2 (8)
50:   FUNC GLOBAL DEFAULT UND pthread_condattr_init@GLIBC_2.2.5 (5)
51:   FUNC GLOBAL DEFAULT UND pthread_condattr_setclock@GLIBC_2.3.3 (9)
52:   FUNC GLOBAL DEFAULT UND AsmGetRegs
53:   FUNC GLOBAL DEFAULT UND _ZN11unwindstack12MemoryR
54:   FUNC GLOBAL DEFAULT UND _ZN11unwindstack3Elf17Set
55:   FUNC GLOBAL DEFAULT UND _ZN11unwindstack4Regs11Cu
56:   FUNC GLOBAL DEFAULT UND _ZN11unwindstack4Regs15Cr
57:   FUNC GLOBAL DEFAULT UND _ZN11unwindstack4Regs18Cr
58:   FUNC GLOBAL DEFAULT UND _ZN11unwindstack4Regs9Rem
59:   FUNC GLOBAL DEFAULT UND _ZN11unwindstack8Unwinder
60:   FUNC GLOBAL DEFAULT UND _ZN11unwindstack8Unwinder
61:   FUNC GLOBAL DEFAULT UND _ZN11unwindstack8Unwinder
62:   FUNC GLOBAL DEFAULT UND _ZNKSt3__120__vector_base
63:   FUNC GLOBAL DEFAULT UND _ZNKSt3__120__vector_base
64:   FUNC GLOBAL DEFAULT UND _ZNSt3__119__shared_weak_
65:   OBJECT GLOBAL DEFAULT UND _ZTVN11unwindstack12Memor
66:   FUNC GLOBAL DEFAULT UND memset@GLIBC_2.2.5 (2)
67:   FUNC GLOBAL DEFAULT UND _ZN11unwindstack19MemoryO
68:   FUNC GLOBAL DEFAULT UND _ZN11unwindstack19MemoryO
69:   FUNC GLOBAL DEFAULT UND _ZN11unwindstack3Elf15Get
70:   FUNC GLOBAL DEFAULT UND _ZN11unwindstack3Elf8GetR
71:   FUNC GLOBAL DEFAULT UND _ZN11unwindstack4Maps3Add
72:   FUNC GLOBAL DEFAULT UND _ZN11unwindstack4Maps4Fin
73:   FUNC GLOBAL DEFAULT UND _ZN11unwindstack4Maps5Par
74:   FUNC GLOBAL DEFAULT UND _ZN11unwindstack6Memory19
75:   FUNC GLOBAL DEFAULT UND _ZN11unwindstack7MapInfo1
76:   FUNC GLOBAL DEFAULT UND _ZN11unwindstack7MapInfo6
77:   FUNC GLOBAL DEFAULT UND _ZN11unwindstack7MapInfoD
78:   FUNC GLOBAL DEFAULT UND _ZN11unwindstack8DexFiles
79:   FUNC GLOBAL DEFAULT UND _ZN11unwindstack8JitDebug
80:   FUNC GLOBAL DEFAULT UND _ZNK11unwindstack10Remote
81:   FUNC GLOBAL DEFAULT UND _ZNSt3__119__shared_weak_
82:   OBJECT GLOBAL DEFAULT UND _ZTIN11unwindstack10Remot
83:   OBJECT GLOBAL DEFAULT UND _ZTINSt3__119__shared_wea
84:   OBJECT GLOBAL DEFAULT UND _ZTVN11unwindstack10Remot
85:   OBJECT GLOBAL DEFAULT UND _ZTVN11unwindstack4MapsE
86:   FUNC GLOBAL DEFAULT UND _ZNSt3__112basic_stringIc
87:   FUNC GLOBAL DEFAULT UND strcmp@GLIBC_2.2.5 (2)
88:   FUNC GLOBAL DEFAULT UND strtoul@GLIBC_2.2.5 (2)
89:   OBJECT WEAK DEFAULT 9 _ZTSNSt3__110__function6_
90:   FUNC WEAK DEFAULT 12 _ZN17UnwindStackPtraceD0E
91:   OBJECT GLOBAL DEFAULT 21 _ZTI17UnwindStackPtrace
92:   OBJECT GLOBAL DEFAULT 9 _ZTS18UnwindStackOffline
93:   FUNC GLOBAL DEFAULT 12 _ZN9Demangler13AppendCurr
94:   FUNC WEAK DEFAULT 12 _ZNSt3__15dequeI15backtra
95:   FUNC GLOBAL DEFAULT 12 _ZN9Backtrace14GetErrorSt
96:   FUNC GLOBAL DEFAULT 12 _ZN9BacktraceD1Ev
97:   FUNC GLOBAL DEFAULT 12 _ZN21UnwindStackOfflineMa
98:   FUNC WEAK DEFAULT 12 _ZNSt3__120__shared_ptr_p
99:   FUNC GLOBAL DEFAULT 12 _ZN9Demangler14ParseArgum
100:   FUNC WEAK DEFAULT 12 _ZN11unwindstack8Unwinder
101:   FUNC WEAK DEFAULT 12 _ZNSt3__16vectorI22backtr
102:   FUNC GLOBAL DEFAULT 12 _ZN9Backtrace15GetFunctio
103:   FUNC GLOBAL DEFAULT 12 _ZN17UnwindStackPtrace18G
104:   FUNC GLOBAL DEFAULT 12 _ZN17UnwindStackPtraceC1E
105:   OBJECT GLOBAL DEFAULT 21 _ZTV9Backtrace
106:   FUNC GLOBAL DEFAULT 12 _ZN11ThreadEntryC2Eii
107:   FUNC WEAK DEFAULT 12 _ZN18UnwindStackCurrentD0
108:   FUNC GLOBAL DEFAULT 12 _ZN12BacktraceMapD1Ev
109:   FUNC GLOBAL DEFAULT 12 _ZN9Backtrace15FormatFram
110:   FUNC GLOBAL DEFAULT 12 _ZN18UnwindStackCurrent18
111:   OBJECT GLOBAL DEFAULT 21 _ZTV17UnwindStackPtrace
112:   FUNC GLOBAL DEFAULT 12 _ZN15BacktracePtrace8Read
113:   FUNC GLOBAL DEFAULT 12 _ZN17UnwindStackPtraceC2E
114:   FUNC GLOBAL DEFAULT 12 _ZN9Backtrace6CreateEiiP1
115:   OBJECT WEAK DEFAULT 21 _ZN9Demangler6kTypesE
116:   FUNC WEAK DEFAULT 12 _ZNSt3__1plIcNS_11char_tr
117:   FUNC GLOBAL DEFAULT 12 _ZN9BacktraceD2Ev
118:   OBJECT GLOBAL DEFAULT 21 _ZTI16BacktraceCurrent
119:   OBJECT GLOBAL DEFAULT 9 _ZTS16BacktraceCurrent
120:   OBJECT GLOBAL DEFAULT 9 _ZTS17UnwindStackPtrace
121:   OBJECT WEAK DEFAULT 9 _ZTSN11unwindstack8Unwind
122:   FUNC GLOBAL DEFAULT 12 _ZN14UnwindStackMapC1Ei
123:   FUNC GLOBAL DEFAULT 12 _ZN21UnwindStackOfflineMa
124:   FUNC GLOBAL DEFAULT 12 _ZN9Demangler5ParseEPKcm
125:   FUNC GLOBAL DEFAULT 12 _ZN12BacktraceMapC1Ei
126:   FUNC WEAK DEFAULT 12 _ZN7android8procinfo15Rea
127:   FUNC WEAK DEFAULT 12 _ZNSt3__15dequeI15backtra
128:   OBJECT GLOBAL DEFAULT 21 _ZTV21UnwindStackOfflineM
129:   FUNC GLOBAL DEFAULT 12 _ZN14UnwindStackMap15GetF
130:   OBJECT WEAK DEFAULT 21 _ZTINSt3__120__shared_ptr
131:   FUNC GLOBAL DEFAULT 12 _ZN9Demangler20ParseCompl
132:   FUNC GLOBAL DEFAULT 12 _ZN9Demangler4SaveERKNSt3
133:   FUNC WEAK DEFAULT 12 _ZN9Demangler9StateData5C
134:   FUNC WEAK DEFAULT 12 _ZNSt3__16vectorIM9Demang
135:   OBJECT GLOBAL DEFAULT 21 _ZTV18UnwindStackCurrent
136:   OBJECT WEAK DEFAULT 21 _ZTVN11unwindstack8Unwind
137:   FUNC WEAK DEFAULT 12 _ZN14UnwindStackMapD2Ev
138:   FUNC WEAK DEFAULT 12 _ZN9DemanglerD2Ev
139:   FUNC GLOBAL DEFAULT 12 _ZN12BacktraceMapD2Ev
140:   FUNC GLOBAL DEFAULT 12 _ZN9Backtrace9FillInMapEm
141:   OBJECT GLOBAL DEFAULT 9 _ZTS15BacktracePtrace
142:   FUNC GLOBAL DEFAULT 12 _ZN18UnwindStackOffline8R
143:   OBJECT WEAK DEFAULT 21 _ZTIN11unwindstack8Unwind
144:   FUNC GLOBAL DEFAULT 12 _ZN9Demangler29ParseTempl
145:   FUNC GLOBAL DEFAULT 12 _ZN18UnwindStackOffline18
146:   FUNC GLOBAL DEFAULT 12 _ZN9Demangler22ParseTempl
147:   FUNC GLOBAL DEFAULT 12 _ZN12BacktraceMap5BuildEv
148:   FUNC GLOBAL DEFAULT 12 _ZN16BacktraceCurrent4Rea
149:   OBJECT GLOBAL DEFAULT 21 _ZTV16BacktraceCurrent
150:   FUNC GLOBAL DEFAULT 12 _ZN21UnwindStackOfflineMa
151:   FUNC WEAK DEFAULT 12 _ZN7android8procinfo18Rea
152:   FUNC GLOBAL DEFAULT 12 _ZN17UnwindStackPtrace4Re
153:   FUNC WEAK DEFAULT 12 _ZN17UnwindStackPtraceD2E
154:   FUNC WEAK DEFAULT 12 _ZN18UnwindStackOfflineD0
155:   FUNC GLOBAL DEFAULT 12 _ZN9Backtrace13CreateOffl
156:   FUNC GLOBAL DEFAULT 12 _ZN9Demangler13AppendCurr
157:   FUNC WEAK DEFAULT 12 _ZNSt3__114__split_buffer
158:   FUNC GLOBAL DEFAULT 12 _ZN11ThreadEntry4WakeEv
159:   FUNC GLOBAL DEFAULT 12 _ZN14UnwindStackMapC2Ei
160:   OBJECT GLOBAL DEFAULT 9 _ZTS21UnwindStackOfflineM
161:   FUNC GLOBAL DEFAULT 14 _fini
162:   FUNC WEAK DEFAULT 12 _ZN12BacktraceMap12LockIt
163:   FUNC GLOBAL DEFAULT 12 _ZN12BacktraceMap6FillInE
164:   FUNC GLOBAL DEFAULT 12 _ZN12BacktraceMapC2Ei
165:   FUNC GLOBAL DEFAULT 12 _ZN18UnwindStackOfflineC2
166:   FUNC GLOBAL DEFAULT 12 _ZN9Demangler24ParseArgum
167:   FUNC WEAK DEFAULT 12 _ZN12BacktraceMap16GetPro
168:   FUNC WEAK DEFAULT 12 _ZNSt3__15dequeI15backtra
169:   OBJECT GLOBAL DEFAULT 21 _ZTI9Backtrace
170:   FUNC GLOBAL DEFAULT 12 _ZN11ThreadEntry4WaitEi
171:   FUNC GLOBAL DEFAULT 12 _ZN18UnwindStackCurrent17
172:   OBJECT GLOBAL DEFAULT 21 _ZTI21UnwindStackOfflineM
173:   FUNC GLOBAL DEFAULT 12 _ZN9Demangler21ParseFunct
174:   FUNC GLOBAL DEFAULT 12 _ZN9Demangler6ParseSEPKc
175:   OBJECT WEAK DEFAULT 21 _ZTINSt3__110__function6_
176:   OBJECT GLOBAL DEFAULT 9 _ZTS9Backtrace
177:   FUNC GLOBAL DEFAULT 12 _ZN18UnwindStackOfflineC1
178:   FUNC GLOBAL DEFAULT 12 _ZN14UnwindStackMap5Build
179:   FUNC GLOBAL DEFAULT 12 _ZN9Demangler30ParseFunct
180:   FUNC GLOBAL DEFAULT 12 _ZN11ThreadEntryD1Ev
181:   FUNC WEAK DEFAULT 12 _ZNKSt3__120__shared_ptr_
182:   FUNC GLOBAL DEFAULT 12 _ZN11ThreadEntryC1Eii
183:   OBJECT GLOBAL DEFAULT 21 _ZTI18UnwindStackCurrent
184:   FUNC GLOBAL DEFAULT 12 _ZN9Backtrace15FormatFram
185:   FUNC GLOBAL DEFAULT 12 _ZN9BacktraceC2EiiP12Back
186:   FUNC GLOBAL DEFAULT 12 _ZN16BacktraceCurrent12Un
187:   FUNC WEAK DEFAULT 12 _ZN11unwindstack4MapsD2Ev
188:   FUNC GLOBAL DEFAULT 12 _ZN14UnwindStackMap11GetL
189:   OBJECT WEAK DEFAULT 21 _ZTVNSt3__120__shared_ptr
190:   FUNC GLOBAL DEFAULT 12 _ZN9Demangler16FindFuncti
191:   FUNC WEAK DEFAULT 12 _ZN9Demangler5ClearEv
192:   FUNC WEAK DEFAULT 12 _ZNSt3__15dequeI15backtra
193:   FUNC GLOBAL DEFAULT 12 _ZN9Backtrace18VerifyRead
194:   FUNC GLOBAL DEFAULT 12 _ZN11ThreadEntry26CopyUco
195:   OBJECT WEAK DEFAULT 9 _ZTSNSt3__120__shared_ptr
196:   FUNC WEAK DEFAULT 12 _ZN12BacktraceMap14Unlock
197:   OBJECT WEAK DEFAULT 21 _ZTIN11unwindstack9LocalM
198:   FUNC GLOBAL DEFAULT 12 _ZN16BacktraceCurrent12Di
199:   FUNC GLOBAL DEFAULT 12 _ZN21UnwindStackOfflineMa
200:   FUNC GLOBAL DEFAULT 12 _ZN9Backtrace13UnwindOffl
201:   OBJECT GLOBAL DEFAULT 21 _ZTV18UnwindStackOffline
202:   FUNC GLOBAL DEFAULT 12 _ZN18UnwindStackOffline4R
203:   FUNC GLOBAL DEFAULT 12 _ZN9Backtrace13CreateOffl
204:   FUNC GLOBAL DEFAULT 12 _ZN9Backtrace17SetGlobalE
205:   OBJECT WEAK DEFAULT 21 _ZN9Demangler7kSTypesE
206:   FUNC WEAK DEFAULT 12 _ZNSt3__16vectorINS_12bas
207:   OBJECT GLOBAL DEFAULT 25 _ZN11ThreadEntry5list_E
208:   FUNC GLOBAL DEFAULT 12 _ZN11ThreadEntryD2Ev
209:   FUNC WEAK DEFAULT 12 _ZNSt3__16vectorINS_12bas
210:   FUNC GLOBAL DEFAULT 12 _ZN9Backtrace6UnwindEPN11
211:   OBJECT WEAK DEFAULT 21 _ZN9Demangler7kDTypesE
212:   FUNC WEAK DEFAULT 12 _ZNSt3__16vectorIM9Demang
213:   FUNC WEAK DEFAULT 12 _ZN16BacktraceCurrentD0Ev
214:   FUNC GLOBAL DEFAULT 12 _ZN18UnwindStackOffline6U
215:   OBJECT GLOBAL DEFAULT 9 _ZTS18UnwindStackCurrent
216:   FUNC GLOBAL DEFAULT 12 _ZN9Demangler17ParseFunct
217:   FUNC GLOBAL DEFAULT 12 _ZN9Demangler20ParseTempl
218:   FUNC WEAK DEFAULT 12 _ZN9Demangler9StateDataC2
219:   FUNC WEAK DEFAULT 12 _ZN12BacktraceMap15GetFun
220:   FUNC WEAK DEFAULT 12 _ZN11unwindstack8Unwinder
221:   FUNC GLOBAL DEFAULT 12 _ZN14UnwindStackMap16GetP
222:   FUNC WEAK DEFAULT 12 _ZNSt3__112__deque_baseIN
223:   FUNC GLOBAL DEFAULT 12 _ZN11ThreadEntry6RemoveEP
224:   FUNC GLOBAL DEFAULT 12 _ZN16BacktraceCurrent8Rea
225:   OBJECT GLOBAL DEFAULT 25 _ZN11ThreadEntry11list_mu
226:   OBJECT GLOBAL DEFAULT 9 _ZTS14UnwindStackMap
227:   FUNC GLOBAL DEFAULT 12 _Z8demanglePKc
228:   FUNC WEAK DEFAULT 12 _ZN15BacktracePtraceD0Ev
229:   FUNC WEAK DEFAULT 12 _ZN21UnwindStackOfflineMa
230:   OBJECT WEAK DEFAULT 9 _ZTSNSt3__114default_dele
231:   FUNC GLOBAL DEFAULT 12 _ZN9Demangler18GetArgumen
232:   FUNC GLOBAL DEFAULT 12 _ZN12BacktraceMap13Create
233:   FUNC GLOBAL DEFAULT 12 _ZN9Demangler6ParseTEPKc
234:   FUNC WEAK DEFAULT 12 _ZNSt3__114__split_buffer
235:   FUNC GLOBAL DEFAULT 12 _ZN12BacktraceMap6CreateE
236:   FUNC GLOBAL DEFAULT 12 _ZN17UnwindStackPtrace6Un
237:   OBJECT GLOBAL DEFAULT 21 _ZTI18UnwindStackOffline
238:   OBJECT WEAK DEFAULT 9 _ZTSN11unwindstack9LocalM
239:   FUNC GLOBAL DEFAULT 13 _init
240:   FUNC WEAK DEFAULT 12 _ZN12BacktraceMap11GetLoa
241:   FUNC WEAK DEFAULT 12 _ZNSt3__16vectorINS_12bas
242:   FUNC GLOBAL DEFAULT 12 _ZN9Demangler18ParseCompl
243:   FUNC GLOBAL DEFAULT 12 _ZN9Demangler19GetStringF
244:   FUNC GLOBAL DEFAULT 12 _ZN9BacktraceD0Ev
245:   OBJECT GLOBAL DEFAULT 21 _ZTI15BacktracePtrace
246:   FUNC GLOBAL DEFAULT 12 _ZN9Demangler14AppendArgu
247:   FUNC GLOBAL DEFAULT 12 _ZN9Demangler16FinalizeTe
248:   FUNC WEAK DEFAULT 12 _ZN9Demangler9StateDataD2
249:   FUNC GLOBAL DEFAULT 12 _ZN11ThreadEntry3GetEiib
250:   FUNC GLOBAL DEFAULT 12 _ZN15BacktracePtrace4Read
251:   FUNC GLOBAL DEFAULT 12 _ZN18UnwindStackCurrentC2
252:   FUNC GLOBAL DEFAULT 12 _ZN14UnwindStackMap6FillI
253:   FUNC WEAK DEFAULT 12 _ZN9Demangler4FailEPKc
254:   FUNC WEAK DEFAULT 12 _ZNSt3__114__split_buffer
255:   FUNC WEAK DEFAULT 12 _ZNSt3__120__shared_ptr_p
256:   OBJECT GLOBAL DEFAULT 21 _ZTI14UnwindStackMap
257:   OBJECT GLOBAL DEFAULT 21 _ZTV14UnwindStackMap
258:   OBJECT WEAK DEFAULT 21 _ZTVN11unwindstack9LocalM
259:   FUNC WEAK DEFAULT 12 _ZNSt3__16vectorINS_12bas
260:   OBJECT GLOBAL DEFAULT 21 _ZTI12BacktraceMap
261:   OBJECT GLOBAL DEFAULT 9 _ZTS12BacktraceMap
262:   FUNC WEAK DEFAULT 12 _ZN14UnwindStackMapD0Ev
263:   FUNC WEAK DEFAULT 12 _ZNSt3__15dequeIN9Demangl
264:   FUNC GLOBAL DEFAULT 12 _ZN12BacktraceMapD0Ev
265:   OBJECT GLOBAL DEFAULT 21 _ZTV12BacktraceMap
266:   FUNC GLOBAL DEFAULT 12 _ZN18UnwindStackCurrentC1
267:   OBJECT GLOBAL DEFAULT 21 _ZTV15BacktracePtrace
268:   FUNC WEAK DEFAULT 12 _ZNSt3__120__shared_ptr_p
269:   FUNC WEAK DEFAULT 12 _ZNSt3__114__split_buffer
270:   FUNC GLOBAL DEFAULT 12 _ZNK15backtrace_map_t4Nam
271:   FUNC WEAK DEFAULT 12 _ZNSt3__112__deque_baseI1
272:   FUNC WEAK DEFAULT 12 _ZNSt3__114__split_buffer
273:   FUNC WEAK DEFAULT 12 _ZN11unwindstack9LocalMap
274:   FUNC GLOBAL DEFAULT 12 _ZN9Demangler20AppendOper
275:   FUNC WEAK DEFAULT 12 _ZNSt3__114__split_buffer
276:   FUNC GLOBAL DEFAULT 12 _ZN16BacktraceCurrent6Unw
277:   FUNC WEAK DEFAULT 12 _ZNSt3__16vectorIN11unwin
278:   FUNC GLOBAL DEFAULT 12 _ZN21UnwindStackOfflineMa
279:   FUNC GLOBAL DEFAULT 12 _ZN9Demangler25ParseFunct
