 0x000000000000000e (SONAME)             Library soname: [libziparchive.so]
  
Symbol   contains 184 entries:
Num:   Type Bind Vis Ndx Name
0:   NOTYPE LOCAL DEFAULT UND
1:   NOTYPE WEAK DEFAULT UND __gmon_start__
2:   NOTYPE WEAK DEFAULT UND _ITM_deregisterTMCloneTab
3:   NOTYPE WEAK DEFAULT UND _ITM_registerTMCloneTable
4:   FUNC WEAK DEFAULT UND __cxa_finalize@GLIBC_2.2.5 (2)
5:   NOTYPE WEAK DEFAULT UND _Jv_RegisterClasses
6:   FUNC GLOBAL DEFAULT UND _ZN7android4base10LogMess
7:   FUNC GLOBAL DEFAULT UND _ZN7android4base10LogMess
8:   FUNC GLOBAL DEFAULT UND _ZN7android4base10LogMess
9:   FUNC GLOBAL DEFAULT UND _ZN7android4base10MappedF
10:   FUNC GLOBAL DEFAULT UND _ZN7android4base10MappedF
11:   FUNC GLOBAL DEFAULT UND _ZN7android4base10WriteFu
12:   FUNC GLOBAL DEFAULT UND _ZN7android4base17ReadFul
13:   FUNC GLOBAL DEFAULT UND _ZNKSt3__16locale9use_fac
14:   FUNC GLOBAL DEFAULT UND _ZNKSt3__18ios_base6getlo
15:   FUNC GLOBAL DEFAULT UND _ZNSt3__113basic_ostreamI
16:   FUNC GLOBAL DEFAULT UND _ZNSt3__113basic_ostreamI
17:   FUNC GLOBAL DEFAULT UND _ZNSt3__113basic_ostreamI
18:   FUNC GLOBAL DEFAULT UND _ZNSt3__113basic_ostreamI
19:   FUNC GLOBAL DEFAULT UND _ZNSt3__113basic_ostreamI
20:   OBJECT GLOBAL DEFAULT UND _ZNSt3__15ctypeIcE2idE
21:   FUNC GLOBAL DEFAULT UND _ZNSt3__16localeD1Ev
22:   FUNC GLOBAL DEFAULT UND _ZNSt3__18ios_base5clearE
23:   OBJECT GLOBAL DEFAULT UND _ZTVN10__cxxabiv117__clas
24:   OBJECT GLOBAL DEFAULT UND _ZTVN10__cxxabiv120__si_c
25:   FUNC GLOBAL DEFAULT UND _ZdaPv
26:   FUNC GLOBAL DEFAULT UND _ZdlPv
27:   FUNC GLOBAL DEFAULT UND _Znam
28:   FUNC GLOBAL DEFAULT UND _Znwm
29:   FUNC GLOBAL DEFAULT UND __android_log_print
30:   FUNC GLOBAL DEFAULT UND __cxa_pure_virtual
31:   FUNC GLOBAL DEFAULT UND __errno_location@GLIBC_2.2.5 (3)
32:   FUNC GLOBAL DEFAULT UND __fxstat64@GLIBC_2.2.5 (2)
33:   FUNC GLOBAL DEFAULT UND __stack_chk_fail@GLIBC_2.4 (4)
34:   FUNC GLOBAL DEFAULT UND calloc@GLIBC_2.2.5 (2)
35:   FUNC GLOBAL DEFAULT UND close@GLIBC_2.2.5 (3)
36:   FUNC GLOBAL DEFAULT UND crc32
37:   FUNC GLOBAL DEFAULT UND fallocate64@GLIBC_2.10 (5)
38:   FUNC GLOBAL DEFAULT UND free@GLIBC_2.2.5 (2)
39:   FUNC GLOBAL DEFAULT UND ftruncate64@GLIBC_2.2.5 (2)
40:   FUNC GLOBAL DEFAULT UND inflate
41:   FUNC GLOBAL DEFAULT UND inflateEnd
42:   FUNC GLOBAL DEFAULT UND inflateInit2_
43:   FUNC GLOBAL DEFAULT UND lseek64@GLIBC_2.2.5 (3)
44:   FUNC GLOBAL DEFAULT UND memcmp@GLIBC_2.2.5 (2)
45:   FUNC GLOBAL DEFAULT UND memcpy@GLIBC_2.14 (6)
46:   FUNC GLOBAL DEFAULT UND memset@GLIBC_2.2.5 (2)
47:   FUNC GLOBAL DEFAULT UND open64@GLIBC_2.2.5 (3)
48:   FUNC GLOBAL DEFAULT UND strerror@GLIBC_2.2.5 (2)
49:   FUNC GLOBAL DEFAULT UND strlen@GLIBC_2.2.5 (2)
50:   FUNC GLOBAL DEFAULT UND _ZNKSt3__120__vector_base
51:   FUNC GLOBAL DEFAULT UND _ZN7android4base21GetMini
52:   FUNC GLOBAL DEFAULT UND _ZNSt3__112basic_stringIc
53:   FUNC GLOBAL DEFAULT UND _ZNSt3__112basic_stringIc
54:   FUNC GLOBAL DEFAULT UND deflate
55:   FUNC GLOBAL DEFAULT UND deflateEnd
56:   FUNC GLOBAL DEFAULT UND deflateInit2_
57:   FUNC GLOBAL DEFAULT UND fflush@GLIBC_2.2.5 (2)
58:   FUNC GLOBAL DEFAULT UND fileno@GLIBC_2.2.5 (2)
59:   FUNC GLOBAL DEFAULT UND fseeko64@GLIBC_2.2.5 (2)
60:   FUNC GLOBAL DEFAULT UND fwrite@GLIBC_2.2.5 (2)
61:   FUNC GLOBAL DEFAULT UND localtime_r@GLIBC_2.2.5 (2)
62:   FUNC GLOBAL DEFAULT 12 _Z15ExtractToMemoryP10Zip
63:   FUNC GLOBAL DEFAULT 12 _ZN34ZipArchiveStreamEntr
64:   OBJECT WEAK DEFAULT 9 _ZTS13ProcessWriter
65:   OBJECT GLOBAL DEFAULT 9 _ZTSN11zip_archive6Reader
66:   OBJECT GLOBAL DEFAULT 21 _ZTI21ZipArchiveStreamEnt
67:   FUNC GLOBAL DEFAULT 12 _ZNK13MappedZipFile12Read
68:   FUNC GLOBAL DEFAULT 12 _ZN33ZipArchiveStreamEntr
69:   FUNC GLOBAL DEFAULT 12 _Z12CloseArchiveP10ZipArc
70:   FUNC GLOBAL DEFAULT 12 _Z12EndIterationPv
71:   FUNC GLOBAL DEFAULT 12 _ZN9ZipStringC2EPKc
72:   FUNC WEAK DEFAULT 12 _ZN21ZipArchiveStreamEntr
73:   FUNC GLOBAL DEFAULT 12 _ZN9ZipWriter17StartAlign
74:   FUNC GLOBAL DEFAULT 12 _ZN9ZipWriterC1EOS_
75:   FUNC WEAK DEFAULT 12 _ZNSt3__16vectorIN9ZipWri
76:   FUNC GLOBAL DEFAULT 12 _Z23ProcessZipEntryConten
77:   FUNC WEAK DEFAULT 12 _ZN34ZipArchiveStreamEntr
78:   FUNC WEAK DEFAULT 12 _ZN13ProcessWriterD0Ev
79:   FUNC WEAK DEFAULT 12 _ZNK11EntryReader12ReadAt
80:   FUNC WEAK DEFAULT 12 _ZN10FileWriter6CreateEiP
81:   FUNC GLOBAL DEFAULT 12 _ZN11zip_archive6ReaderD0
82:   FUNC GLOBAL DEFAULT 12 _ZN11zip_archive6WriterD2
83:   OBJECT GLOBAL DEFAULT 9 _ZTS33ZipArchiveStreamEnt
84:   OBJECT GLOBAL DEFAULT 9 _ZTS34ZipArchiveStreamEnt
85:   OBJECT GLOBAL DEFAULT 21 _ZTIN11zip_archive6Writer
86:   FUNC GLOBAL DEFAULT 12 _ZN33ZipArchiveStreamEntr
87:   FUNC GLOBAL DEFAULT 14 _fini
88:   FUNC GLOBAL DEFAULT 12 _Z11OpenArchivePKcPP10Zip
89:   FUNC GLOBAL DEFAULT 12 _ZN31ZipArchiveStreamEntr
90:   FUNC GLOBAL DEFAULT 12 _ZN9ZipWriter10StartEntry
91:   FUNC GLOBAL DEFAULT 12 _Z18ExtractEntryToFileP10
92:   FUNC GLOBAL DEFAULT 12 _Z9FindEntryP10ZipArchive
93:   FUNC WEAK DEFAULT 12 _ZN12MemoryWriter6AppendE
94:   OBJECT WEAK DEFAULT 9 _ZTS10FileWriter
95:   OBJECT GLOBAL DEFAULT 9 _ZTSN11zip_archive6Writer
96:   FUNC GLOBAL DEFAULT 12 _ZN31ZipArchiveStreamEntr
97:   OBJECT GLOBAL DEFAULT 21 _ZTV33ZipArchiveStreamEnt
98:   FUNC GLOBAL DEFAULT 12 _ZN9ZipWriter10WriteBytes
99:   FUNC GLOBAL DEFAULT 12 _ZN9ZipWriter11FinishEntr
100:   FUNC GLOBAL DEFAULT 13 _init
101:   FUNC GLOBAL DEFAULT 12 _ZN10ZipArchiveD1Ev
102:   OBJECT WEAK DEFAULT 9 _ZTS11EntryReader
103:   FUNC GLOBAL DEFAULT 12 _ZN10ZipArchiveC2EPvm
104:   FUNC GLOBAL DEFAULT 12 _ZN9ZipWriter14PrepareDef
105:   FUNC GLOBAL DEFAULT 12 _ZN9ZipWriter15ErrorCodeS
106:   FUNC GLOBAL DEFAULT 12 _Z15ExtractToWriterP10Zip
107:   FUNC GLOBAL DEFAULT 12 _ZN9ZipStringC1EPKc
108:   FUNC GLOBAL DEFAULT 12 _ZNK8ZipEntry19GetModific
109:   FUNC WEAK DEFAULT 12 _ZNSt3__124__put_characte
110:   FUNC GLOBAL DEFAULT 12 _ZN9ZipWriterC1EP8_IO_FIL
111:   FUNC GLOBAL DEFAULT 12 _ZN11zip_archive7InflateE
112:   FUNC GLOBAL DEFAULT 12 _ZN21ZipArchiveStreamEntr
113:   FUNC WEAK DEFAULT 12 _ZNSt3__16vectorIhNS_9all
114:   OBJECT GLOBAL DEFAULT 9 _ZTS21ZipArchiveStreamEnt
115:   OBJECT GLOBAL DEFAULT 21 _ZTV34ZipArchiveStreamEnt
116:   FUNC GLOBAL DEFAULT 12 _ZN9ZipWriter11HandleErro
117:   FUNC GLOBAL DEFAULT 12 _ZN9ZipWriterC2EP8_IO_FIL
118:   FUNC WEAK DEFAULT 12 _ZN13ProcessWriter6Append
119:   OBJECT WEAK DEFAULT 21 _ZTV10FileWriter
120:   FUNC GLOBAL DEFAULT 12 _ZN11zip_archive6ReaderD1
121:   FUNC WEAK DEFAULT 12 _ZN21ZipArchiveStreamEntr
122:   FUNC GLOBAL DEFAULT 12 _ZN31ZipArchiveStreamEntr
123:   FUNC WEAK DEFAULT 12 _ZN33ZipArchiveStreamEntr
124:   OBJECT GLOBAL DEFAULT 21 _ZTV21ZipArchiveStreamEnt
125:   FUNC GLOBAL DEFAULT 12 _ZN9ZipWriter20FlushCompr
126:   FUNC GLOBAL DEFAULT 12 _Z13OpenArchiveFdiPKcPP10
127:   OBJECT WEAK DEFAULT 21 _ZTI13ProcessWriter
128:   FUNC GLOBAL DEFAULT 12 _ZN21ZipArchiveStreamEntr
129:   FUNC GLOBAL DEFAULT 12 _ZN31ZipArchiveStreamEntr
130:   FUNC GLOBAL DEFAULT 12 _ZN9ZipWriter16DiscardLas
131:   FUNC WEAK DEFAULT 12 _ZN10FileWriter6AppendEPh
132:   FUNC GLOBAL DEFAULT 12 _ZN10ZipArchive26Initiali
133:   FUNC GLOBAL DEFAULT 12 _ZN11zip_archive6WriterD0
134:   OBJECT GLOBAL DEFAULT 21 _ZTVN11zip_archive6Writer
135:   FUNC GLOBAL DEFAULT 12 _ZN10ZipArchiveD2Ev
136:   FUNC GLOBAL DEFAULT 12 _ZNK13MappedZipFile17GetF
137:   FUNC GLOBAL DEFAULT 12 _ZN34ZipArchiveStreamEntr
138:   FUNC GLOBAL DEFAULT 12 _ZN10ZipArchiveC1EPvm
139:   OBJECT WEAK DEFAULT 9 _ZTS12MemoryWriter
140:   FUNC GLOBAL DEFAULT 12 _Z14StartIterationP10ZipA
141:   OBJECT WEAK DEFAULT 21 _ZTV12MemoryWriter
142:   OBJECT GLOBAL DEFAULT 21 _ZTI31ZipArchiveStreamEnt
143:   FUNC GLOBAL DEFAULT 12 _ZN9ZipWriter10StoreBytes
144:   FUNC GLOBAL DEFAULT 12 _ZN9ZipWriter25StartAlign
145:   FUNC GLOBAL DEFAULT 12 _ZNK13MappedZipFile10GetB
146:   OBJECT WEAK DEFAULT 21 _ZTI11EntryReader
147:   OBJECT WEAK DEFAULT 21 _ZTI12MemoryWriter
148:   OBJECT WEAK DEFAULT 21 _ZTV13ProcessWriter
149:   FUNC GLOBAL DEFAULT 12 _ZN21ZipArchiveStreamEntr
150:   FUNC GLOBAL DEFAULT 12 _Z4NextPvP8ZipEntryP9ZipS
151:   FUNC GLOBAL DEFAULT 12 _ZN10ZipArchiveC2Eib
152:   FUNC GLOBAL DEFAULT 12 _ZN31ZipArchiveStreamEntr
153:   FUNC GLOBAL DEFAULT 12 _ZN9ZipWriter6FinishEv
154:   FUNC WEAK DEFAULT 12 _ZN11EntryReaderD0Ev
155:   FUNC GLOBAL DEFAULT 12 _ZN11zip_archive6ReaderD2
156:   FUNC WEAK DEFAULT 12 _ZN12MemoryWriterD0Ev
157:   FUNC GLOBAL DEFAULT 12 _ZN9ZipWriterC2EOS_
158:   FUNC GLOBAL DEFAULT 12 _Z15ErrorCodeStringi
159:   FUNC GLOBAL DEFAULT 12 _ZN9ZipWriter18StartEntry
160:   FUNC GLOBAL DEFAULT 12 _ZN10ZipArchiveC1Eib
161:   OBJECT GLOBAL DEFAULT 21 _ZTVN11zip_archive6Reader
162:   OBJECT GLOBAL DEFAULT 21 _ZTI33ZipArchiveStreamEnt
163:   FUNC GLOBAL DEFAULT 12 _ZN11zip_archive6WriterD1
164:   OBJECT WEAK DEFAULT 21 _ZTI10FileWriter
165:   OBJECT WEAK DEFAULT 21 _ZTV11EntryReader
166:   FUNC GLOBAL DEFAULT 12 _ZN9ZipWriter13CompressBy
167:   FUNC GLOBAL DEFAULT 12 _ZN9ZipWriteraSEOS_
168:   FUNC WEAK DEFAULT 12 _ZNSt3__16vectorIcNS_9all
169:   FUNC GLOBAL DEFAULT 12 _ZN16CentralDirectory10In
170:   FUNC GLOBAL DEFAULT 12 _ZNK13MappedZipFile13GetF
171:   FUNC GLOBAL DEFAULT 12 _ZN33ZipArchiveStreamEntr
172:   FUNC WEAK DEFAULT 12 _ZN33ZipArchiveStreamEntr
173:   OBJECT GLOBAL DEFAULT 21 _ZTI34ZipArchiveStreamEnt
174:   OBJECT GLOBAL DEFAULT 21 _ZTV31ZipArchiveStreamEnt
175:   FUNC GLOBAL DEFAULT 12 _Z17GetFileDescriptorP10Z
176:   FUNC GLOBAL DEFAULT 12 _Z21OpenArchiveFromMemory
177:   FUNC WEAK DEFAULT 12 _ZN10FileWriterD0Ev
178:   FUNC WEAK DEFAULT 12 _ZNSt3__121__murmur2_or_c
179:   FUNC WEAK DEFAULT 12 _ZNSt3__121__murmur2_or_c
180:   OBJECT GLOBAL DEFAULT 21 _ZTIN11zip_archive6Reader
181:   FUNC GLOBAL DEFAULT 12 _ZN31ZipArchiveStreamEntr
182:   OBJECT GLOBAL DEFAULT 9 _ZTS31ZipArchiveStreamEnt
183:   FUNC GLOBAL DEFAULT 12 _ZN9ZipWriter12GetLastEnt
